<?xml version="1.0" encoding="UTF-8" standalone="no"?>
<!-- Created with Inkscape (http://www.inkscape.org/) -->

<svg
   viewBox="0 0 139.70001 215.90002"
   width="100mm"
   height="50mm"
   id="svg2"
   version="1.1"
   inkscape:version="1.1.1 (1:1.1+202109281943+c3084ef5ed)"
   sodipodi:docname="Laplace2d.svg"
   xmlns:inkscape="http://www.inkscape.org/namespaces/inkscape"
   xmlns:sodipodi="http://sodipodi.sourceforge.net/DTD/sodipodi-0.dtd"
   xmlns="http://www.w3.org/2000/svg"
   xmlns:svg="http://www.w3.org/2000/svg"
   xmlns:rdf="http://www.w3.org/1999/02/22-rdf-syntax-ns#"
   xmlns:cc="http://creativecommons.org/ns#"
   xmlns:dc="http://purl.org/dc/elements/1.1/"
   xmlns:ns0="http://www.iki.fi/pav/software/textext/">
  <sodipodi:namedview
     id="base"
     pagecolor="#ffffff"
     bordercolor="#666666"
     borderopacity="1.0"
     inkscape:pageopacity="0.0"
     inkscape:pageshadow="2"
     inkscape:zoom="1.5956784"
     inkscape:cx="191.76797"
     inkscape:cy="126.59192"
     inkscape:document-units="mm"
     inkscape:current-layer="layer1"
     showgrid="true"
     units="mm"
     inkscape:window-width="1920"
     inkscape:window-height="1016"
     inkscape:window-x="0"
     inkscape:window-y="27"
     inkscape:window-maximized="1"
     inkscape:pagecheckerboard="0">
    <inkscape:grid
       spacingy="4.3180005"
       spacingx="1.3970001"
       units="mm"
       snapvisiblegridlinesonly="true"
       enabled="true"
       visible="true"
       empspacing="5"
       id="grid2985"
       type="xygrid"
       originx="0"
       originy="0" />
  </sodipodi:namedview>
  <defs
     id="defs4">
    <inkscape:path-effect
       effect="bspline"
       id="path-effect8634"
       is_visible="true"
       lpeversion="1"
       weight="33.333333"
       steps="2"
       helper_size="0"
       apply_no_weight="true"
       apply_with_weight="true"
       only_selected="false" />
    <inkscape:path-effect
       effect="bspline"
       id="path-effect6440"
       is_visible="true"
       lpeversion="1"
       weight="33.333333"
       steps="2"
       helper_size="0"
       apply_no_weight="true"
       apply_with_weight="true"
       only_selected="false" />
    <inkscape:path-effect
       effect="bspline"
       id="path-effect5949"
       is_visible="true"
       lpeversion="1"
       weight="33.333333"
       steps="2"
       helper_size="0"
       apply_no_weight="true"
       apply_with_weight="true"
       only_selected="false" />
    <inkscape:path-effect
       effect="bspline"
       id="path-effect5945"
       is_visible="true"
       lpeversion="1"
       weight="33.333333"
       steps="2"
       helper_size="0"
       apply_no_weight="true"
       apply_with_weight="true"
       only_selected="false" />
    <inkscape:path-effect
       effect="bspline"
       id="path-effect5941"
       is_visible="true"
       lpeversion="1"
       weight="33.333333"
       steps="2"
       helper_size="0"
       apply_no_weight="true"
       apply_with_weight="true"
       only_selected="false" />
    <inkscape:path-effect
       effect="bspline"
       id="path-effect5937"
       is_visible="true"
       lpeversion="1"
       weight="33.333333"
       steps="2"
       helper_size="0"
       apply_no_weight="true"
       apply_with_weight="true"
       only_selected="false" />
    <inkscape:path-effect
       effect="bspline"
       id="path-effect5933"
       is_visible="true"
       lpeversion="1"
       weight="33.333333"
       steps="2"
       helper_size="0"
       apply_no_weight="true"
       apply_with_weight="true"
       only_selected="false" />
    <inkscape:path-effect
       effect="bspline"
       id="path-effect5929"
       is_visible="true"
       lpeversion="1"
       weight="33.333333"
       steps="2"
       helper_size="0"
       apply_no_weight="true"
       apply_with_weight="true"
       only_selected="false" />
    <inkscape:path-effect
       effect="bspline"
       id="path-effect5925"
       is_visible="true"
       lpeversion="1"
       weight="33.333333"
       steps="2"
       helper_size="0"
       apply_no_weight="true"
       apply_with_weight="true"
       only_selected="false" />
    <inkscape:path-effect
       effect="bspline"
       id="path-effect5921"
       is_visible="true"
       lpeversion="1"
       weight="33.333333"
       steps="2"
       helper_size="0"
       apply_no_weight="true"
       apply_with_weight="true"
       only_selected="false" />
    <inkscape:path-effect
       effect="bspline"
       id="path-effect4201"
       is_visible="true"
       lpeversion="1"
       weight="33.333333"
       steps="2"
       helper_size="0"
       apply_no_weight="true"
       apply_with_weight="true"
       only_selected="false" />
    <inkscape:path-effect
       effect="bspline"
       id="path-effect3975"
       is_visible="true"
       lpeversion="1"
       weight="33.333333"
       steps="2"
       helper_size="0"
       apply_no_weight="true"
       apply_with_weight="true"
       only_selected="false" />
    <marker
       style="overflow:visible"
       id="Arrow1Mstart"
       refX="0"
       refY="0"
       orient="auto"
       inkscape:stockid="Arrow1Mstart"
       inkscape:isstock="true">
      <path
         transform="matrix(0.4,0,0,0.4,4,0)"
         style=";fill-rule:evenodd;stroke:context-stroke;stroke-width:1pt"
         d="M 0,0 5,-5 -12.5,0 5,5 Z"
         id="path1405" />
    </marker>
    <inkscape:path-effect
       effect="bspline"
       id="path-effect3325"
       is_visible="true"
       lpeversion="1"
       weight="33.333333"
       steps="2"
       helper_size="0"
       apply_no_weight="true"
       apply_with_weight="true"
       only_selected="false" />
    <inkscape:path-effect
       effect="bspline"
       id="path-effect3195"
       is_visible="true"
       lpeversion="1"
       weight="33.333333"
       steps="2"
       helper_size="0"
       apply_no_weight="true"
       apply_with_weight="true"
       only_selected="false" />
    <inkscape:path-effect
       effect="bspline"
       id="path-effect3191"
       is_visible="true"
       lpeversion="1"
       weight="33.333333"
       steps="2"
       helper_size="0"
       apply_no_weight="true"
       apply_with_weight="true"
       only_selected="false" />
    <inkscape:path-effect
       effect="bspline"
       id="path-effect2586"
       is_visible="true"
       lpeversion="1"
       weight="33.333333"
       steps="2"
       helper_size="0"
       apply_no_weight="true"
       apply_with_weight="true"
       only_selected="false" />
    <inkscape:path-effect
       effect="bspline"
       id="path-effect2582"
       is_visible="true"
       lpeversion="1"
       weight="33.333333"
       steps="2"
       helper_size="0"
       apply_no_weight="true"
       apply_with_weight="true"
       only_selected="false" />
    <inkscape:path-effect
       effect="bspline"
       id="path-effect2323"
       is_visible="true"
       lpeversion="1"
       weight="33.333333"
       steps="2"
       helper_size="0"
       apply_no_weight="true"
       apply_with_weight="true"
       only_selected="false" />
    <inkscape:path-effect
       effect="bspline"
       id="path-effect2065"
       is_visible="true"
       lpeversion="1"
       weight="33.333333"
       steps="2"
       helper_size="0"
       apply_no_weight="true"
       apply_with_weight="true"
       only_selected="false" />
    <marker
       style="overflow:visible"
       id="Arrow1Mend"
       refX="0"
       refY="0"
       orient="auto"
       inkscape:stockid="Arrow1Mend"
       inkscape:isstock="true">
      <path
         transform="matrix(-0.4,0,0,-0.4,-4,0)"
         style=";fill-rule:evenodd;stroke:context-stroke;stroke-width:1pt"
         d="M 0,0 5,-5 -12.5,0 5,5 Z"
         id="path1408" />
    </marker>
    <inkscape:path-effect
       effect="bspline"
       id="path-effect1397"
       is_visible="true"
       lpeversion="1"
       weight="33.333333"
       steps="2"
       helper_size="0"
       apply_no_weight="true"
       apply_with_weight="true"
       only_selected="false" />
    <inkscape:path-effect
       effect="bspline"
       id="path-effect865"
       is_visible="true"
       lpeversion="1"
       weight="33.333333"
       steps="2"
       helper_size="0"
       apply_no_weight="true"
       apply_with_weight="true"
       only_selected="false" />
    <marker
       style="overflow:visible"
       id="Arrow1Mend-3"
       refX="0"
       refY="0"
       orient="auto"
       inkscape:stockid="Arrow1Mend"
       inkscape:isstock="true">
      <path
         transform="matrix(-0.4,0,0,-0.4,-4,0)"
         style=";fill-rule:evenodd;stroke:context-stroke;stroke-width:1pt"
         d="M 0,0 5,-5 -12.5,0 5,5 Z"
         id="path1408-6" />
    </marker>
    <g
       id="id-e4a60a4f-9171-4d19-aa7f-9b449de563d4-3"
       style="stroke:#000000;stroke-width:0;stroke-opacity:1">
      <symbol
         overflow="visible"
         id="id-7d03893a-15ed-44cd-a4d6-bb41741f637b-6"
         style="stroke:#000000;stroke-width:0;stroke-opacity:1">
        <path
           style="stroke:#000000;stroke-width:0;stroke-opacity:1"
           d=""
           id="id-93915d91-ec2e-4491-96b8-d62d7cadaef8-0" />
      </symbol>
      <symbol
         overflow="visible"
         id="id-e9dde324-ec5c-454e-8f92-6402e0546960-6"
         style="stroke:#000000;stroke-width:0;stroke-opacity:1">
        <path
           style="stroke:#000000;stroke-width:0;stroke-opacity:1"
           d="m 4.53125,-4.984375 c 0,-0.65625 -0.171875,-2.046875 -1.1875,-2.046875 -1.390625,0 -2.921875,2.8125 -2.921875,5.09375 0,0.9375 0.28125,2.046875 1.1875,2.046875 1.40625,0 2.921875,-2.859375 2.921875,-5.09375 z M 1.46875,-3.625 C 1.640625,-4.25 1.84375,-5.046875 2.25,-5.765625 2.515625,-6.25 2.875,-6.8125 3.328125,-6.8125 c 0.484375,0 0.546875,0.640625 0.546875,1.203125 0,0.5 -0.078125,1 -0.3125,1.984375 z m 2,0.328125 C 3.359375,-2.84375 3.15625,-2 2.765625,-1.28125 c -0.34375,0.6875 -0.71875,1.171875 -1.15625,1.171875 -0.328125,0 -0.53125,-0.296875 -0.53125,-1.21875 0,-0.421875 0.0625,-1 0.3125,-1.96875 z m 0,0"
           id="id-fe7d3d2d-93cf-4e37-a6ca-7b55b8116272-2" />
      </symbol>
    </g>
    <marker
       style="overflow:visible"
       id="Arrow1Mstart-9"
       refX="0"
       refY="0"
       orient="auto"
       inkscape:stockid="Arrow1Mstart"
       inkscape:isstock="true">
      <path
         transform="matrix(0.4,0,0,0.4,4,0)"
         style=";fill-rule:evenodd;stroke:context-stroke;stroke-width:1pt"
         d="M 0,0 5,-5 -12.5,0 5,5 Z"
         id="path1405-2" />
    </marker>
    <marker
       style="overflow:visible"
       id="Arrow1Mend-2"
       refX="0"
       refY="0"
       orient="auto"
       inkscape:stockid="Arrow1Mend"
       inkscape:isstock="true">
      <path
         transform="matrix(-0.4,0,0,-0.4,-4,0)"
         style=";fill-rule:evenodd;stroke:context-stroke;stroke-width:1pt"
         d="M 0,0 5,-5 -12.5,0 5,5 Z"
         id="path1408-8" />
    </marker>
    <marker
       style="overflow:visible"
       id="Arrow1Mend-2-7"
       refX="0"
       refY="0"
       orient="auto"
       inkscape:stockid="Arrow1Mend"
       inkscape:isstock="true">
      <path
         transform="matrix(-0.4,0,0,-0.4,-4,0)"
         style=";fill-rule:evenodd;stroke:context-stroke;stroke-width:1pt"
         d="M 0,0 5,-5 -12.5,0 5,5 Z"
         id="path1408-8-3" />
    </marker>
    <g
       id="id-e4a60a4f-9171-4d19-aa7f-9b449de563d4-9"
       style="stroke:#000000;stroke-width:0;stroke-opacity:1">
      <symbol
         overflow="visible"
         id="id-7d03893a-15ed-44cd-a4d6-bb41741f637b-3"
         style="stroke:#000000;stroke-width:0;stroke-opacity:1">
        <path
           style="stroke:#000000;stroke-width:0;stroke-opacity:1"
           d=""
           id="id-93915d91-ec2e-4491-96b8-d62d7cadaef8-1" />
      </symbol>
      <symbol
         overflow="visible"
         id="id-e9dde324-ec5c-454e-8f92-6402e0546960-9"
         style="stroke:#000000;stroke-width:0;stroke-opacity:1">
        <path
           style="stroke:#000000;stroke-width:0;stroke-opacity:1"
           d="m 4.53125,-4.984375 c 0,-0.65625 -0.171875,-2.046875 -1.1875,-2.046875 -1.390625,0 -2.921875,2.8125 -2.921875,5.09375 0,0.9375 0.28125,2.046875 1.1875,2.046875 1.40625,0 2.921875,-2.859375 2.921875,-5.09375 z M 1.46875,-3.625 C 1.640625,-4.25 1.84375,-5.046875 2.25,-5.765625 2.515625,-6.25 2.875,-6.8125 3.328125,-6.8125 c 0.484375,0 0.546875,0.640625 0.546875,1.203125 0,0.5 -0.078125,1 -0.3125,1.984375 z m 2,0.328125 C 3.359375,-2.84375 3.15625,-2 2.765625,-1.28125 c -0.34375,0.6875 -0.71875,1.171875 -1.15625,1.171875 -0.328125,0 -0.53125,-0.296875 -0.53125,-1.21875 0,-0.421875 0.0625,-1 0.3125,-1.96875 z m 0,0"
           id="id-fe7d3d2d-93cf-4e37-a6ca-7b55b8116272-4" />
      </symbol>
    </g>
    <g
       id="id-e4a60a4f-9171-4d19-aa7f-9b449de563d4-1"
       style="stroke:#000000;stroke-width:0;stroke-opacity:1">
      <symbol
         overflow="visible"
         id="id-7d03893a-15ed-44cd-a4d6-bb41741f637b-0"
         style="stroke:#000000;stroke-width:0;stroke-opacity:1">
        <path
           style="stroke:#000000;stroke-width:0;stroke-opacity:1"
           d=""
           id="id-93915d91-ec2e-4491-96b8-d62d7cadaef8-6" />
      </symbol>
      <symbol
         overflow="visible"
         id="id-e9dde324-ec5c-454e-8f92-6402e0546960-3"
         style="stroke:#000000;stroke-width:0;stroke-opacity:1">
        <path
           style="stroke:#000000;stroke-width:0;stroke-opacity:1"
           d="m 4.53125,-4.984375 c 0,-0.65625 -0.171875,-2.046875 -1.1875,-2.046875 -1.390625,0 -2.921875,2.8125 -2.921875,5.09375 0,0.9375 0.28125,2.046875 1.1875,2.046875 1.40625,0 2.921875,-2.859375 2.921875,-5.09375 z M 1.46875,-3.625 C 1.640625,-4.25 1.84375,-5.046875 2.25,-5.765625 2.515625,-6.25 2.875,-6.8125 3.328125,-6.8125 c 0.484375,0 0.546875,0.640625 0.546875,1.203125 0,0.5 -0.078125,1 -0.3125,1.984375 z m 2,0.328125 C 3.359375,-2.84375 3.15625,-2 2.765625,-1.28125 c -0.34375,0.6875 -0.71875,1.171875 -1.15625,1.171875 -0.328125,0 -0.53125,-0.296875 -0.53125,-1.21875 0,-0.421875 0.0625,-1 0.3125,-1.96875 z m 0,0"
           id="id-fe7d3d2d-93cf-4e37-a6ca-7b55b8116272-20" />
      </symbol>
    </g>
    <g
       id="id-e4a60a4f-9171-4d19-aa7f-9b449de563d4-5"
       style="stroke:#000000;stroke-width:0;stroke-opacity:1">
      <symbol
         overflow="visible"
         id="id-7d03893a-15ed-44cd-a4d6-bb41741f637b-69"
         style="stroke:#000000;stroke-width:0;stroke-opacity:1">
        <path
           style="stroke:#000000;stroke-width:0;stroke-opacity:1"
           d=""
           id="id-93915d91-ec2e-4491-96b8-d62d7cadaef8-3" />
      </symbol>
      <symbol
         overflow="visible"
         id="id-e9dde324-ec5c-454e-8f92-6402e0546960-7"
         style="stroke:#000000;stroke-width:0;stroke-opacity:1">
        <path
           style="stroke:#000000;stroke-width:0;stroke-opacity:1"
           d="m 4.53125,-4.984375 c 0,-0.65625 -0.171875,-2.046875 -1.1875,-2.046875 -1.390625,0 -2.921875,2.8125 -2.921875,5.09375 0,0.9375 0.28125,2.046875 1.1875,2.046875 1.40625,0 2.921875,-2.859375 2.921875,-5.09375 z M 1.46875,-3.625 C 1.640625,-4.25 1.84375,-5.046875 2.25,-5.765625 2.515625,-6.25 2.875,-6.8125 3.328125,-6.8125 c 0.484375,0 0.546875,0.640625 0.546875,1.203125 0,0.5 -0.078125,1 -0.3125,1.984375 z m 2,0.328125 C 3.359375,-2.84375 3.15625,-2 2.765625,-1.28125 c -0.34375,0.6875 -0.71875,1.171875 -1.15625,1.171875 -0.328125,0 -0.53125,-0.296875 -0.53125,-1.21875 0,-0.421875 0.0625,-1 0.3125,-1.96875 z m 0,0"
           id="id-fe7d3d2d-93cf-4e37-a6ca-7b55b8116272-45" />
      </symbol>
    </g>
    <g
       id="id-e707b3b4-5c3c-4105-b0fe-42ee44af2c8f-3"
       style="stroke:#000000;stroke-width:0;stroke-opacity:1">
      <symbol
         overflow="visible"
         id="id-d0850dd7-9ec8-4e39-a5a8-4c6e8eae2a2e-0"
         style="stroke:#000000;stroke-width:0;stroke-opacity:1">
        <path
           style="stroke:#000000;stroke-width:0;stroke-opacity:1"
           d=""
           id="id-6f9fe063-acde-4795-871d-b0c8bb8e16b9-7" />
      </symbol>
      <symbol
         overflow="visible"
         id="id-c9d10af6-a8b3-446b-8475-365580c2ea8f-8"
         style="stroke:#000000;stroke-width:0;stroke-opacity:1">
        <path
           style="stroke:#000000;stroke-width:0;stroke-opacity:1"
           d="m 2.859375,-6.921875 -1.5625,1.265625 0.28125,0.375 1.28125,-0.8125 1.28125,0.8125 0.28125,-0.375 z m 0,0"
           id="id-c131fa57-71e8-42b3-bb38-afdae4ea4db4-6" />
      </symbol>
      <symbol
         overflow="visible"
         id="id-323ccb17-678f-4542-bfa1-6999f520dd20-8"
         style="stroke:#000000;stroke-width:0;stroke-opacity:1">
        <path
           style="stroke:#000000;stroke-width:0;stroke-opacity:1"
           d=""
           id="id-1626f46b-2cae-4d82-8d4a-523517ab4a60-8" />
      </symbol>
      <symbol
         overflow="visible"
         id="id-c7fbf65c-9d65-48aa-bd70-82d7df23fe4e-4"
         style="stroke:#000000;stroke-width:0;stroke-opacity:1">
        <path
           style="stroke:#000000;stroke-width:0;stroke-opacity:1"
           d="m 9.015625,-6.0625 c 0.0625,-0.1875 0.0625,-0.203125 0.296875,-0.25 0.171875,-0.03125 0.421875,-0.0625 0.578125,-0.0625 0.171875,0 0.34375,0 0.34375,-0.28125 0,-0.09375 -0.0625,-0.1875 -0.203125,-0.1875 -0.359375,0 -0.734375,0.03125 -1.09375,0.03125 -0.25,0 -0.890625,-0.03125 -1.140625,-0.03125 -0.078125,0 -0.265625,0 -0.265625,0.296875 0,0.171875 0.171875,0.171875 0.296875,0.171875 0.09375,0 0.46875,0 0.703125,0.109375 L 7.453125,-1.96875 4.640625,-6.671875 C 4.546875,-6.84375 4.515625,-6.84375 4.28125,-6.84375 H 2.390625 c -0.203125,0 -0.359375,0 -0.359375,0.296875 0,0.171875 0.15625,0.171875 0.328125,0.171875 h 0.25 c 0.4375,0 0.4375,0.03125 0.4375,0.0625 0,0.03125 -0.03125,0.09375 -0.03125,0.125 L 1.65625,-0.78125 c -0.046875,0.1875 -0.046875,0.203125 -0.296875,0.25 -0.25,0.0625 -0.546875,0.0625 -0.578125,0.0625 -0.1875,0 -0.359375,0 -0.359375,0.296875 C 0.421875,-0.15625 0.453125,0 0.625,0 0.984375,0 1.359375,-0.03125 1.734375,-0.03125 1.984375,-0.03125 2.625,0 2.875,0 c 0.0625,0 0.265625,0 0.265625,-0.296875 0,-0.171875 -0.1875,-0.171875 -0.3125,-0.171875 -0.09375,0 -0.453125,0 -0.6875,-0.09375 L 3.5,-6 6.984375,-0.171875 C 7.09375,0 7.125,0 7.28125,0 7.5,0 7.5,-0.046875 7.5625,-0.234375 Z m 0,0"
           id="id-5020fcd4-532c-49f0-9f2a-d9b22d6a0e5d-3" />
      </symbol>
    </g>
    <g
       id="id-df8523d9-e38f-4b19-ae00-911e89ad918c-6"
       style="fill:#008115;fill-opacity:1;stroke:#008115;stroke-width:0;stroke-opacity:1">
      <symbol
         overflow="visible"
         id="id-99a31b36-870d-49a2-b77f-d85cd40addd8-6"
         style="fill:#008115;fill-opacity:1;stroke:#008115;stroke-width:0;stroke-opacity:1">
        <path
           style="fill:#008115;fill-opacity:1;stroke:#008115;stroke-width:0;stroke-opacity:1"
           d=""
           id="id-0a991556-d94a-492a-9bcd-ebde30fce600-4" />
      </symbol>
      <symbol
         overflow="visible"
         id="id-f07820f0-9b31-4e6d-b5a5-a04d8ffadab2-9"
         style="fill:#008115;fill-opacity:1;stroke:#008115;stroke-width:0;stroke-opacity:1">
        <path
           style="fill:#008115;fill-opacity:1;stroke:#008115;stroke-width:0;stroke-opacity:1"
           d="m 2.859375,-6.921875 -1.5625,1.265625 0.28125,0.375 1.28125,-0.8125 1.28125,0.8125 0.28125,-0.375 z m 0,0"
           id="id-a316c2b4-e6e2-468b-8a02-65bca878220a-5" />
      </symbol>
      <symbol
         overflow="visible"
         id="id-c78b0de9-4821-4fbc-a206-07fa04945fe6-0"
         style="fill:#008115;fill-opacity:1;stroke:#008115;stroke-width:0;stroke-opacity:1">
        <path
           style="fill:#008115;fill-opacity:1;stroke:#008115;stroke-width:0;stroke-opacity:1"
           d=""
           id="id-4bbeadad-ca78-449e-9e10-d1734d81dfec-4" />
      </symbol>
      <symbol
         overflow="visible"
         id="id-fa4b153a-7150-4633-a863-e7c91fb29392-8"
         style="fill:#008115;fill-opacity:1;stroke:#008115;stroke-width:0;stroke-opacity:1">
        <path
           style="fill:#008115;fill-opacity:1;stroke:#008115;stroke-width:0;stroke-opacity:1"
           d="M 2.796875,-3.75 C 2.65625,-4.25 2.109375,-4.5 1.5625,-4.5 1.203125,-4.5 0.921875,-4.296875 0.703125,-3.9375 0.453125,-3.53125 0.3125,-3 0.3125,-2.953125 c 0,0.140625 0.15625,0.140625 0.25,0.140625 0.109375,0 0.140625,0 0.1875,-0.046875 C 0.78125,-2.875 0.78125,-2.90625 0.84375,-3.15625 1.03125,-3.921875 1.25,-4.140625 1.515625,-4.140625 c 0.15625,0 0.234375,0.09375 0.234375,0.359375 0,0.171875 -0.046875,0.328125 -0.140625,0.734375 C 1.53125,-2.765625 1.4375,-2.375 1.390625,-2.15625 L 1.03125,-0.75 C 1,-0.625 0.953125,-0.421875 0.953125,-0.359375 c 0,0.203125 0.15625,0.4375 0.46875,0.4375 0.515625,0 0.625,-0.453125 0.703125,-0.75 0.09375,-0.375 0.171875,-0.6875 0.28125,-1.125 0.03125,-0.125 0.28125,-1.15625 0.3125,-1.1875 0,-0.0625 0.28125,-0.5 0.609375,-0.78125 0.28125,-0.21875 0.609375,-0.375 1.03125,-0.375 0.25,0 0.5,0.09375 0.5,0.578125 0,0.578125 -0.4375,1.734375 -0.625,2.234375 -0.125,0.265625 -0.140625,0.34375 -0.140625,0.515625 0,0.578125 0.578125,0.890625 1.125,0.890625 1.046875,0 1.546875,-1.359375 1.546875,-1.546875 0,-0.140625 -0.140625,-0.140625 -0.234375,-0.140625 -0.125,0 -0.1875,0 -0.234375,0.125 C 5.96875,-0.375 5.4375,-0.28125 5.28125,-0.28125 c -0.078125,0 -0.171875,0 -0.171875,-0.203125 0,-0.234375 0.09375,-0.484375 0.1875,-0.734375 0.171875,-0.40625 0.625,-1.578125 0.625,-2.125 C 5.921875,-4.265625 5.15625,-4.5 4.4375,-4.5 4.234375,-4.5 3.5,-4.5 2.796875,-3.75 Z m 0,0"
           id="id-08952e90-a8af-4146-b524-6835d3a667ca-7" />
      </symbol>
    </g>
    <g
       id="id-e707b3b4-5c3c-4105-b0fe-42ee44af2c8f-6"
       style="stroke:#000000;stroke-width:0;stroke-opacity:1">
      <symbol
         overflow="visible"
         id="id-d0850dd7-9ec8-4e39-a5a8-4c6e8eae2a2e-1"
         style="stroke:#000000;stroke-width:0;stroke-opacity:1">
        <path
           style="stroke:#000000;stroke-width:0;stroke-opacity:1"
           d=""
           id="id-6f9fe063-acde-4795-871d-b0c8bb8e16b9-5" />
      </symbol>
      <symbol
         overflow="visible"
         id="id-c9d10af6-a8b3-446b-8475-365580c2ea8f-9"
         style="stroke:#000000;stroke-width:0;stroke-opacity:1">
        <path
           style="stroke:#000000;stroke-width:0;stroke-opacity:1"
           d="m 2.859375,-6.921875 -1.5625,1.265625 0.28125,0.375 1.28125,-0.8125 1.28125,0.8125 0.28125,-0.375 z m 0,0"
           id="id-c131fa57-71e8-42b3-bb38-afdae4ea4db4-4" />
      </symbol>
      <symbol
         overflow="visible"
         id="id-323ccb17-678f-4542-bfa1-6999f520dd20-9"
         style="stroke:#000000;stroke-width:0;stroke-opacity:1">
        <path
           style="stroke:#000000;stroke-width:0;stroke-opacity:1"
           d=""
           id="id-1626f46b-2cae-4d82-8d4a-523517ab4a60-0" />
      </symbol>
      <symbol
         overflow="visible"
         id="id-c7fbf65c-9d65-48aa-bd70-82d7df23fe4e-9"
         style="stroke:#000000;stroke-width:0;stroke-opacity:1">
        <path
           style="stroke:#000000;stroke-width:0;stroke-opacity:1"
           d="m 9.015625,-6.0625 c 0.0625,-0.1875 0.0625,-0.203125 0.296875,-0.25 0.171875,-0.03125 0.421875,-0.0625 0.578125,-0.0625 0.171875,0 0.34375,0 0.34375,-0.28125 0,-0.09375 -0.0625,-0.1875 -0.203125,-0.1875 -0.359375,0 -0.734375,0.03125 -1.09375,0.03125 -0.25,0 -0.890625,-0.03125 -1.140625,-0.03125 -0.078125,0 -0.265625,0 -0.265625,0.296875 0,0.171875 0.171875,0.171875 0.296875,0.171875 0.09375,0 0.46875,0 0.703125,0.109375 L 7.453125,-1.96875 4.640625,-6.671875 C 4.546875,-6.84375 4.515625,-6.84375 4.28125,-6.84375 H 2.390625 c -0.203125,0 -0.359375,0 -0.359375,0.296875 0,0.171875 0.15625,0.171875 0.328125,0.171875 h 0.25 c 0.4375,0 0.4375,0.03125 0.4375,0.0625 0,0.03125 -0.03125,0.09375 -0.03125,0.125 L 1.65625,-0.78125 c -0.046875,0.1875 -0.046875,0.203125 -0.296875,0.25 -0.25,0.0625 -0.546875,0.0625 -0.578125,0.0625 -0.1875,0 -0.359375,0 -0.359375,0.296875 C 0.421875,-0.15625 0.453125,0 0.625,0 0.984375,0 1.359375,-0.03125 1.734375,-0.03125 1.984375,-0.03125 2.625,0 2.875,0 c 0.0625,0 0.265625,0 0.265625,-0.296875 0,-0.171875 -0.1875,-0.171875 -0.3125,-0.171875 -0.09375,0 -0.453125,0 -0.6875,-0.09375 L 3.5,-6 6.984375,-0.171875 C 7.09375,0 7.125,0 7.28125,0 7.5,0 7.5,-0.046875 7.5625,-0.234375 Z m 0,0"
           id="id-5020fcd4-532c-49f0-9f2a-d9b22d6a0e5d-1" />
      </symbol>
    </g>
  </defs>
  <metadata
     id="metadata7">
    <rdf:RDF>
      <cc:Work
         rdf:about="">
        <dc:format>image/svg+xml</dc:format>
        <dc:type
           rdf:resource="http://purl.org/dc/dcmitype/StillImage" />
      </cc:Work>
    </rdf:RDF>
  </metadata>
  <g
     transform="translate(0,-875.19684)"
     id="layer1"
     inkscape:groupmode="layer"
     inkscape:label="Layer 1">
    <g
       style="font-style:normal;font-variant:normal;font-weight:normal;font-stretch:normal;letter-spacing:normal;word-spacing:normal;text-anchor:start;fill:none;stroke:#000000;stroke-linecap:butt;stroke-linejoin:miter;stroke-miterlimit:10.433;stroke-dasharray:none;stroke-dashoffset:0;stroke-opacity:1"
       ns0:preamble="/home/shreyas/Grants/Career2013/draft/Figures/preamble.tex"
       ns0:text="$L = 2 \\pi \\alpha$"
       word-spacing="normal"
       letter-spacing="normal"
       font-size-adjust="none"
       font-stretch="normal"
       font-weight="normal"
       font-variant="normal"
       font-style="normal"
       stroke-miterlimit="10.433"
       xml:space="preserve"
       transform="matrix(1,0,0,-1,-186.72198,1344.7728)"
       id="content"><path
         style="fill:#000000;stroke-width:0"
         inkscape:connector-curvature="0"
         id="path2994"
         d="m 227.15,483.24 0.01,0.04 0.01,0.03 0.01,0.03 0.01,0.03 v 0.03 l 0.01,0.02 0.01,0.03 0.01,0.02 0.02,0.02 0.01,0.02 0.01,0.02 0.02,0.02 0.02,0.02 0.02,0.01 0.02,0.02 0.02,0.01 0.03,0.02 0.03,0.01 0.03,0.01 0.04,0.01 h 0.02 l 0.01,0.01 h 0.03 l 0.02,0.01 h 0.02 0.02 l 0.03,0.01 h 0.02 0.03 0.02 l 0.03,0.01 h 0.03 0.03 0.03 l 0.03,0.01 h 0.04 0.03 0.04 0.03 0.04 0.04 0.04 0.04 0.05 c 0.3,0 0.38,0 0.38,0.19 0,0.12 -0.11,0.12 -0.16,0.12 -0.33,0 -1.15,-0.03 -1.48,-0.03 -0.29,0 -1.02,0.03 -1.32,0.03 -0.07,0 -0.19,0 -0.19,-0.2 0,-0.11 0.09,-0.11 0.28,-0.11 0.02,0 0.21,0 0.38,-0.02 0.18,-0.02 0.27,-0.03 0.27,-0.16 0,-0.04 -0.01,-0.07 -0.04,-0.19 l -1.34,-5.33 c -0.09,-0.39 -0.11,-0.47 -0.9,-0.47 -0.17,0 -0.27,0 -0.27,-0.2 0,-0.11 0.09,-0.11 0.27,-0.11 h 4.61 c 0.23,0 0.24,0 0.3,0.17 l 0.79,2.15 c 0.04,0.11 0.04,0.13 0.04,0.14 0,0.04 -0.03,0.11 -0.12,0.11 -0.09,0 -0.1,-0.05 -0.17,-0.21 -0.34,-0.92 -0.78,-2.05 -2.5,-2.05 h -0.93 c -0.14,0 -0.16,0 -0.22,0.01 -0.1,0.01 -0.13,0.02 -0.13,0.1 0,0.03 0,0.05 0.05,0.23 z" /><path
         style="fill:#000000;stroke-width:0"
         inkscape:connector-curvature="0"
         id="path2996"
         d="m 239.82,480.48 h 0.02 0.03 0.03 l 0.02,0.01 h 0.01 0.02 0.01 0.01 0.02 l 0.01,0.01 h 0.01 0.02 l 0.01,0.01 h 0.01 l 0.01,0.01 h 0.01 l 0.02,0.01 0.01,0.01 v 0.01 l 0.01,0.01 0.01,0.01 v 0 l 0.01,0.01 v 0 0.01 l 0.01,0.01 v 0 0.01 0.01 h 0.01 v 0.01 0.01 0.01 0.01 0 0.01 0.01 c 0,0.2 -0.19,0.2 -0.33,0.2 h -5.95 c -0.14,0 -0.33,0 -0.33,-0.2 0,-0.2 0.19,-0.2 0.34,-0.2 z" /><path
         style="fill:#000000;stroke-width:0"
         inkscape:connector-curvature="0"
         id="path2998"
         d="m 239.82,478.56 h 0.02 0.01 0.03 0.03 0.01 0.01 0.02 0.01 0.02 l 0.01,0.01 h 0.01 0.02 l 0.01,0.01 h 0.01 l 0.01,0.01 h 0.01 l 0.02,0.01 h 0.01 l 0.01,0.01 v 0.01 l 0.01,0.01 h 0.01 v 0.01 0.01 h 0.01 v 0.01 0 l 0.01,0.01 v 0.01 0 0.01 l 0.01,0.01 v 0 0.01 0.01 0.01 0.01 0.01 0.01 c 0,0.19 -0.19,0.19 -0.33,0.19 h -5.94 c -0.15,0 -0.34,0 -0.34,-0.19 0,-0.2 0.19,-0.2 0.33,-0.2 z" /><path
         style="fill:#000000;stroke-width:0"
         inkscape:connector-curvature="0"
         id="path3000"
         d="m 244.76,478 1.06,1.02 c 1.55,1.37 2.15,1.91 2.15,2.9 0,1.14 -0.9,1.93 -2.11,1.93 -1.13,0 -1.86,-0.91 -1.86,-1.8 0,-0.55 0.49,-0.55 0.52,-0.55 0.17,0 0.52,0.12 0.52,0.52 0,0.26 -0.18,0.52 -0.53,0.52 -0.08,0 -0.1,0 -0.13,-0.01 0.23,0.64 0.77,1.01 1.35,1.01 0.9,0 1.33,-0.8 1.33,-1.62 0,-0.79 -0.5,-1.58 -1.04,-2.19 l -1.92,-2.13 c -0.1,-0.11 -0.1,-0.13 -0.1,-0.37 h 3.69 l 0.28,1.73 h -0.25 c -0.05,-0.29 -0.12,-0.73 -0.22,-0.88 C 247.43,478 246.77,478 246.55,478 Z" /><path
         style="fill:#000000;stroke-width:0"
         inkscape:connector-curvature="0"
         id="path3002"
         d="m 251.11,480.94 h 1.13 c -0.33,-1.47 -0.42,-1.9 -0.42,-2.56 0,-0.15 0,-0.42 0.08,-0.76 0.1,-0.44 0.21,-0.49 0.36,-0.49 0.2,0 0.41,0.17 0.41,0.37 0,0.06 0,0.08 -0.06,0.22 -0.29,0.72 -0.29,1.36 -0.29,1.64 0,0.53 0.07,1.06 0.18,1.58 h 1.13 c 0.13,0 0.49,0 0.49,0.34 0,0.24 -0.21,0.24 -0.4,0.24 h -3.33 c -0.22,0 -0.6,0 -1.04,-0.47 -0.35,-0.39 -0.6,-0.85 -0.6,-0.89 0,-0.01 0,-0.1 0.12,-0.1 0.08,0 0.09,0.04 0.15,0.11 0.49,0.77 1.07,0.77 1.27,0.77 h 0.56 c -0.31,-1.2 -0.85,-2.4 -1.27,-3.31 -0.08,-0.15 -0.08,-0.17 -0.08,-0.24 0,-0.19 0.16,-0.26 0.29,-0.26 0.3,0 0.38,0.27 0.5,0.64 0.14,0.46 0.14,0.48 0.27,0.97 z" /><path
         style="fill:#000000;stroke-width:0"
         inkscape:connector-curvature="0"
         id="path3004"
         d="m 259.26,479.58 v 0.07 0.07 l -0.01,0.07 v 0.07 l -0.01,0.13 -0.02,0.12 -0.02,0.12 -0.03,0.12 -0.03,0.1 -0.04,0.11 -0.03,0.09 -0.05,0.1 -0.04,0.08 -0.05,0.08 -0.05,0.08 -0.06,0.07 -0.06,0.07 -0.05,0.06 -0.07,0.05 -0.06,0.06 -0.07,0.05 -0.06,0.04 -0.07,0.04 -0.07,0.04 -0.07,0.03 -0.07,0.03 -0.07,0.02 -0.07,0.02 -0.08,0.02 -0.07,0.01 -0.07,0.01 -0.07,0.01 h -0.07 l -0.07,0.01 c -1.36,0 -2.68,-1.43 -2.68,-2.83 0,-0.92 0.6,-1.67 1.61,-1.67 l 0.02,0.21 c -0.59,0 -0.89,0.45 -0.89,1.09 0,0.48 0.26,1.56 0.58,2.06 0.46,0.73 1,0.92 1.35,0.92 0.98,0 0.98,-1.3 0.98,-2.08 0,-0.37 0,-0.94 0.02,-1.11 v 0 c -0.87,-0.77 -1.64,-0.88 -2.04,-0.88 l -0.02,-0.21 c 0.63,0 1.35,0.22 2.1,0.83 0.13,-0.53 0.46,-0.83 0.91,-0.83 0.53,0 0.83,0.54 0.83,0.7 0,0.07 -0.05,0.1 -0.11,0.1 -0.08,0 -0.11,-0.03 -0.13,-0.1 -0.18,-0.49 -0.54,-0.49 -0.56,-0.49 -0.31,0 -0.31,0.78 -0.31,1.02 0,0.21 0,0.23 0.1,0.34 0.94,1.18 1.14,2.33 1.14,2.34 0,0.02 -0.01,0.1 -0.12,0.1 -0.09,0 -0.09,-0.03 -0.15,-0.21 -0.17,-0.63 -0.5,-1.38 -0.97,-1.97 z" /></g>
    <path
       style="fill:#008115;fill-opacity:1;fill-rule:evenodd;stroke:#008115;stroke-width:2.159;stroke-linecap:butt;stroke-linejoin:miter;stroke-miterlimit:4;stroke-dasharray:none;stroke-opacity:1;marker-end:url(#Arrow1Mend)"
       d="m 216.66202,975.22682 c -3.80803,-23.5378 -7.61626,-47.0769 -11.42471,-70.61729"
       id="path1395"
       inkscape:path-effect="#path-effect1397"
       inkscape:original-d="m 216.66202,975.22682 c -3.80709,-23.53795 -7.61533,-47.07705 -11.42471,-70.61729"
       sodipodi:nodetypes="cc" />
    <path
       style="fill:#3455ff;fill-rule:evenodd;stroke:#3455ff;stroke-width:1.72720014;stroke-linecap:butt;stroke-linejoin:miter;stroke-miterlimit:4;stroke-dasharray:none;stroke-opacity:1;marker-end:url(#Arrow1Mend);fill-opacity:1"
       d="m 216.66202,974.51085 c 18.71206,-5.67359 37.4234,-11.34697 56.134,-17.02012"
       id="path2063"
       inkscape:path-effect="#path-effect2065"
       inkscape:original-d="m 216.66202,974.51085 c 18.71247,-5.67223 37.42381,-11.3456 56.134,-17.02012"
       sodipodi:nodetypes="cc" />
    <path
       style="fill:none;fill-rule:evenodd;stroke:#000000;stroke-width:1.14427;stroke-linecap:butt;stroke-linejoin:miter;stroke-miterlimit:4;stroke-dasharray:1.14427, 1.14427;stroke-dashoffset:0;stroke-opacity:1"
       d="m 158.81596,832.71594 c 15.83381,0 31.66648,0 47.498,0"
       id="path2580"
       inkscape:path-effect="#path-effect2582"
       inkscape:original-d="m 158.81596,832.71594 c 15.83381,10e-4 31.66648,10e-4 47.498,0" />
    <path
       style="fill:none;fill-rule:evenodd;stroke:#000000;stroke-width:1.14247px;stroke-linecap:butt;stroke-linejoin:miter;stroke-opacity:1"
       d="m 184.72396,832.71594 c -0.0952,-1.66192 -0.19049,-3.32505 -0.62448,-4.88082 -0.434,-1.55577 -1.20736,-3.00435 -1.98146,-4.45429"
       id="path2584"
       inkscape:path-effect="#path-effect2586"
       inkscape:original-d="m 184.72396,832.71594 c -0.0941,-1.66198 -0.18942,-3.32511 -0.28584,-4.98938 -0.77222,-1.44743 -1.54559,-2.89601 -2.3201,-4.34573"
       sodipodi:nodetypes="csc" />
    <g
       transform="matrix(1.33333,0,0,1.33333,192.199,821.35112)"
       ns0:version="1.3.0"
       ns0:texconverter="pdflatex"
       ns0:pdfconverter="inkscape"
       ns0:text="$\\theta$"
       ns0:preamble="/home/shreyas/Teaching/Courses/2020/MA3D1/preamble.tex"
       ns0:scale="1.0"
       ns0:alignment="middle center"
       ns0:inkscapeversion="0.48.4"
       ns0:jacobian_sqrt="1.33333"
       style="stroke:#000000;stroke-width:0;stroke-opacity:1"
       id="content-5">
      <defs
         id="id-46444f69-29dd-4498-a38f-c86d3e355274"
         style="stroke:#000000;stroke-width:0;stroke-opacity:1">
        <g
           id="id-e4a60a4f-9171-4d19-aa7f-9b449de563d4"
           style="stroke:#000000;stroke-width:0;stroke-opacity:1">
          <symbol
             overflow="visible"
             id="id-7d03893a-15ed-44cd-a4d6-bb41741f637b"
             style="stroke:#000000;stroke-width:0;stroke-opacity:1">
            <path
               style="stroke:#000000;stroke-width:0;stroke-opacity:1"
               d=""
               id="id-93915d91-ec2e-4491-96b8-d62d7cadaef8" />
          </symbol>
          <symbol
             overflow="visible"
             id="id-e9dde324-ec5c-454e-8f92-6402e0546960"
             style="stroke:#000000;stroke-width:0;stroke-opacity:1">
            <path
               style="stroke:#000000;stroke-width:0;stroke-opacity:1"
               d="m 4.53125,-4.984375 c 0,-0.65625 -0.171875,-2.046875 -1.1875,-2.046875 -1.390625,0 -2.921875,2.8125 -2.921875,5.09375 0,0.9375 0.28125,2.046875 1.1875,2.046875 1.40625,0 2.921875,-2.859375 2.921875,-5.09375 z M 1.46875,-3.625 C 1.640625,-4.25 1.84375,-5.046875 2.25,-5.765625 2.515625,-6.25 2.875,-6.8125 3.328125,-6.8125 c 0.484375,0 0.546875,0.640625 0.546875,1.203125 0,0.5 -0.078125,1 -0.3125,1.984375 z m 2,0.328125 C 3.359375,-2.84375 3.15625,-2 2.765625,-1.28125 c -0.34375,0.6875 -0.71875,1.171875 -1.15625,1.171875 -0.328125,0 -0.53125,-0.296875 -0.53125,-1.21875 0,-0.421875 0.0625,-1 0.3125,-1.96875 z m 0,0"
               id="id-fe7d3d2d-93cf-4e37-a6ca-7b55b8116272" />
          </symbol>
        </g>
      </defs>
      <g
         id="id-caacc324-075e-4580-bfa2-cab1e0641e28"
         transform="translate(-149.134,-127.734)"
         style="stroke:#000000;stroke-width:0;stroke-opacity:1">
        <g
           style="fill:#000000;fill-opacity:1;stroke:#000000;stroke-width:0;stroke-opacity:1"
           id="id-016bee17-7893-44b0-ad45-51085d3d6182">
          <g
             transform="translate(148.712,134.765)"
             style="stroke:#000000;stroke-width:0;stroke-opacity:1"
             id="g3048">
            <path
               style="stroke:#000000;stroke-width:0;stroke-opacity:1"
               d="m 4.53125,-4.984375 c 0,-0.65625 -0.171875,-2.046875 -1.1875,-2.046875 -1.390625,0 -2.921875,2.8125 -2.921875,5.09375 0,0.9375 0.28125,2.046875 1.1875,2.046875 1.40625,0 2.921875,-2.859375 2.921875,-5.09375 z M 1.46875,-3.625 C 1.640625,-4.25 1.84375,-5.046875 2.25,-5.765625 2.515625,-6.25 2.875,-6.8125 3.328125,-6.8125 c 0.484375,0 0.546875,0.640625 0.546875,1.203125 0,0.5 -0.078125,1 -0.3125,1.984375 z m 2,0.328125 C 3.359375,-2.84375 3.15625,-2 2.765625,-1.28125 c -0.34375,0.6875 -0.71875,1.171875 -1.15625,1.171875 -0.328125,0 -0.53125,-0.296875 -0.53125,-1.21875 0,-0.421875 0.0625,-1 0.3125,-1.96875 z m 0,0"
               id="id-af0fdd81-cdf0-4208-bc85-d66fb1ae2506" />
          </g>
        </g>
      </g>
    </g>
    <path
       style="fill:none;fill-rule:evenodd;stroke:#727272;stroke-width:0.8636;stroke-linecap:butt;stroke-linejoin:miter;stroke-miterlimit:4;stroke-dasharray:none;stroke-opacity:1;marker-end:url(#Arrow1Mend-2)"
       d="m -123.34851,1076.0122 c 12.95514,0 25.909144,0 38.861994,0"
       id="path3323-9"
       inkscape:path-effect="#path-effect3975"
       inkscape:original-d="m -123.34851,1076.0122 c 12.95514,0 25.909144,0 38.861994,0"
       sodipodi:nodetypes="cc" />
    <path
       style="fill:none;fill-rule:evenodd;stroke:#727272;stroke-width:0.8636;stroke-linecap:butt;stroke-linejoin:miter;stroke-miterlimit:4;stroke-dasharray:none;stroke-opacity:1;marker-end:url(#Arrow1Mend-2-7)"
       d="m -121.1895,1078.1712 c 0,-12.9551 0,-25.9091 0,-38.862"
       id="path3323-9-6"
       inkscape:path-effect="#path-effect4201"
       inkscape:original-d="m -121.1895,1078.1712 c 10e-4,-12.9551 10e-4,-25.9091 0,-38.862"
       sodipodi:nodetypes="cc" />
    <g
       transform="matrix(1.33333,0,0,1.33333,-118.11551,1038.0784)"
       ns0:version="1.3.0"
       ns0:texconverter="pdflatex"
       ns0:pdfconverter="inkscape"
       ns0:text="$z$"
       ns0:preamble="/home/shreyas/Teaching/Courses/2020/MA3D1/preamble.tex"
       ns0:scale="1.0"
       ns0:alignment="middle center"
       ns0:inkscapeversion="0.48.4"
       ns0:jacobian_sqrt="1.33333"
       style="stroke:#000000;stroke-width:0;stroke-opacity:1"
       id="content-5-03">
      <defs
         id="id-ba3490f2-6b53-4626-9c5e-6a2036c13fc4"
         style="stroke:#000000;stroke-width:0;stroke-opacity:1">
        <g
           id="id-9c6fa5b9-9d6a-4175-84e6-1883fd2776e2"
           style="stroke:#000000;stroke-width:0;stroke-opacity:1">
          <symbol
             overflow="visible"
             id="id-e84ff992-15cc-4253-8056-769567b0c03d"
             style="stroke:#000000;stroke-width:0;stroke-opacity:1">
            <path
               style="stroke:#000000;stroke-width:0;stroke-opacity:1"
               d=""
               id="id-810c8ff1-fd35-4b1a-b8ac-a27779ff060c" />
          </symbol>
          <symbol
             overflow="visible"
             id="id-70559393-4613-4e79-bba9-c1c3281ccfb5"
             style="stroke:#000000;stroke-width:0;stroke-opacity:1">
            <path
               style="stroke:#000000;stroke-width:0;stroke-opacity:1"
               d="m 1.328125,-0.828125 c 0.53125,-0.578125 0.828125,-0.828125 1.1875,-1.140625 0,0 0.609375,-0.53125 0.96875,-0.890625 C 4.4375,-3.78125 4.65625,-4.265625 4.65625,-4.3125 c 0,-0.09375 -0.09375,-0.09375 -0.109375,-0.09375 -0.078125,0 -0.09375,0.015625 -0.15625,0.109375 -0.296875,0.484375 -0.5,0.640625 -0.734375,0.640625 -0.25,0 -0.359375,-0.15625 -0.515625,-0.328125 -0.1875,-0.21875 -0.359375,-0.421875 -0.6875,-0.421875 -0.75,0 -1.203125,0.921875 -1.203125,1.140625 0,0.046875 0.03125,0.109375 0.109375,0.109375 0.09375,0 0.109375,-0.046875 0.140625,-0.109375 0.1875,-0.46875 0.765625,-0.46875 0.84375,-0.46875 0.203125,0 0.390625,0.0625 0.625,0.140625 0.40625,0.15625 0.515625,0.15625 0.765625,0.15625 -0.359375,0.421875 -1.1875,1.140625 -1.375,1.296875 l -0.90625,0.84375 C 0.78125,-0.625 0.421875,-0.0625 0.421875,0.015625 c 0,0.09375 0.109375,0.09375 0.125,0.09375 0.078125,0 0.09375,-0.015625 0.15625,-0.125 0.234375,-0.359375 0.53125,-0.625 0.859375,-0.625 0.21875,0 0.328125,0.09375 0.578125,0.375 0.15625,0.21875 0.34375,0.375 0.625,0.375 1,0 1.578125,-1.265625 1.578125,-1.53125 0,-0.046875 -0.046875,-0.109375 -0.125,-0.109375 -0.09375,0 -0.109375,0.0625 -0.140625,0.140625 C 3.84375,-0.75 3.203125,-0.5625 2.875,-0.5625 c -0.1875,0 -0.375,-0.0625 -0.578125,-0.125 -0.34375,-0.125 -0.5,-0.171875 -0.703125,-0.171875 -0.015625,0 -0.171875,0 -0.265625,0.03125 z m 0,0"
               id="id-d16b2d01-55b7-40a4-af77-d1bc7540a6e3" />
          </symbol>
        </g>
      </defs>
      <g
         id="id-0b52542d-ff52-4aaa-a91c-efe07a39fa5d"
         transform="translate(-149.134,-130.359)"
         style="stroke:#000000;stroke-width:0;stroke-opacity:1">
        <g
           style="fill:#000000;fill-opacity:1;stroke:#000000;stroke-width:0;stroke-opacity:1"
           id="id-279542ec-d69f-4a50-b775-d933aba2415f">
          <g
             transform="translate(148.712,134.765)"
             style="stroke:#000000;stroke-width:0;stroke-opacity:1"
             id="g4610">
            <path
               style="stroke:#000000;stroke-width:0;stroke-opacity:1"
               d="m 1.328125,-0.828125 c 0.53125,-0.578125 0.828125,-0.828125 1.1875,-1.140625 0,0 0.609375,-0.53125 0.96875,-0.890625 C 4.4375,-3.78125 4.65625,-4.265625 4.65625,-4.3125 c 0,-0.09375 -0.09375,-0.09375 -0.109375,-0.09375 -0.078125,0 -0.09375,0.015625 -0.15625,0.109375 -0.296875,0.484375 -0.5,0.640625 -0.734375,0.640625 -0.25,0 -0.359375,-0.15625 -0.515625,-0.328125 -0.1875,-0.21875 -0.359375,-0.421875 -0.6875,-0.421875 -0.75,0 -1.203125,0.921875 -1.203125,1.140625 0,0.046875 0.03125,0.109375 0.109375,0.109375 0.09375,0 0.109375,-0.046875 0.140625,-0.109375 0.1875,-0.46875 0.765625,-0.46875 0.84375,-0.46875 0.203125,0 0.390625,0.0625 0.625,0.140625 0.40625,0.15625 0.515625,0.15625 0.765625,0.15625 -0.359375,0.421875 -1.1875,1.140625 -1.375,1.296875 l -0.90625,0.84375 C 0.78125,-0.625 0.421875,-0.0625 0.421875,0.015625 c 0,0.09375 0.109375,0.09375 0.125,0.09375 0.078125,0 0.09375,-0.015625 0.15625,-0.125 0.234375,-0.359375 0.53125,-0.625 0.859375,-0.625 0.21875,0 0.328125,0.09375 0.578125,0.375 0.15625,0.21875 0.34375,0.375 0.625,0.375 1,0 1.578125,-1.265625 1.578125,-1.53125 0,-0.046875 -0.046875,-0.109375 -0.125,-0.109375 -0.09375,0 -0.109375,0.0625 -0.140625,0.140625 C 3.84375,-0.75 3.203125,-0.5625 2.875,-0.5625 c -0.1875,0 -0.375,-0.0625 -0.578125,-0.125 -0.34375,-0.125 -0.5,-0.171875 -0.703125,-0.171875 -0.015625,0 -0.171875,0 -0.265625,0.03125 z m 0,0"
               id="id-4290dae9-ab08-48ed-b211-d248b568a2a2" />
          </g>
        </g>
      </g>
    </g>
    <g
       transform="matrix(1.33333,0,0,1.33333,-88.369506,1063.9864)"
       ns0:version="1.3.0"
       ns0:texconverter="pdflatex"
       ns0:pdfconverter="inkscape"
       ns0:text="$x$"
       ns0:preamble="/home/shreyas/Teaching/Courses/2020/MA3D1/preamble.tex"
       ns0:scale="1.0"
       ns0:alignment="middle center"
       ns0:inkscapeversion="0.48.4"
       ns0:jacobian_sqrt="1.33333"
       style="stroke:#000000;stroke-width:0;stroke-opacity:1"
       id="content-5-1">
      <defs
         id="id-8e64ab04-c2c3-46b9-ba21-f560aea517f9"
         style="stroke:#000000;stroke-width:0;stroke-opacity:1">
        <g
           id="id-d076a64f-e0ed-449a-a4f8-c00a03d1be4a"
           style="stroke:#000000;stroke-width:0;stroke-opacity:1">
          <symbol
             overflow="visible"
             id="id-ee3c8e53-ec60-4225-aebc-a9c5e43eb0b7"
             style="stroke:#000000;stroke-width:0;stroke-opacity:1">
            <path
               style="stroke:#000000;stroke-width:0;stroke-opacity:1"
               d=""
               id="id-23e600bd-603b-4029-beda-17396dd9499b" />
          </symbol>
          <symbol
             overflow="visible"
             id="id-94098aa7-0eb5-4e63-adbb-78a5ad0d142e"
             style="stroke:#000000;stroke-width:0;stroke-opacity:1">
            <path
               style="stroke:#000000;stroke-width:0;stroke-opacity:1"
               d="M 3.328125,-3.015625 C 3.390625,-3.265625 3.625,-4.1875 4.3125,-4.1875 c 0.046875,0 0.296875,0 0.5,0.125 C 4.53125,-4 4.34375,-3.765625 4.34375,-3.515625 c 0,0.15625 0.109375,0.34375 0.375,0.34375 0.21875,0 0.53125,-0.171875 0.53125,-0.578125 0,-0.515625 -0.578125,-0.65625 -0.921875,-0.65625 -0.578125,0 -0.921875,0.53125 -1.046875,0.75 -0.25,-0.65625 -0.78125,-0.75 -1.078125,-0.75 -1.03125,0 -1.609375,1.28125 -1.609375,1.53125 0,0.109375 0.109375,0.109375 0.125,0.109375 0.078125,0 0.109375,-0.03125 0.125,-0.109375 0.34375,-1.0625 1,-1.3125 1.34375,-1.3125 0.1875,0 0.53125,0.09375 0.53125,0.671875 0,0.3125 -0.171875,0.96875 -0.53125,2.375 -0.15625,0.609375 -0.515625,1.03125 -0.953125,1.03125 -0.0625,0 -0.28125,0 -0.5,-0.125 0.25,-0.0625 0.46875,-0.265625 0.46875,-0.546875 0,-0.265625 -0.21875,-0.34375 -0.359375,-0.34375 -0.3125,0 -0.546875,0.25 -0.546875,0.578125 0,0.453125 0.484375,0.65625 0.921875,0.65625 0.671875,0 1.03125,-0.703125 1.046875,-0.75 0.125,0.359375 0.484375,0.75 1.078125,0.75 1.03125,0 1.59375,-1.28125 1.59375,-1.53125 0,-0.109375 -0.078125,-0.109375 -0.109375,-0.109375 -0.09375,0 -0.109375,0.046875 -0.140625,0.109375 -0.328125,1.078125 -1,1.3125 -1.3125,1.3125 -0.390625,0 -0.546875,-0.3125 -0.546875,-0.65625 0,-0.21875 0.046875,-0.4375 0.15625,-0.875 z m 0,0"
               id="id-12669bce-2166-490c-8736-c1200bf1d70c" />
          </symbol>
        </g>
      </defs>
      <g
         id="id-a12d4ba8-4517-4227-b64d-a2bd9cb81bb7"
         transform="translate(-149.009,-130.359)"
         style="stroke:#000000;stroke-width:0;stroke-opacity:1">
        <g
           style="fill:#000000;fill-opacity:1;stroke:#000000;stroke-width:0;stroke-opacity:1"
           id="id-043b8954-af50-41ee-919e-5a681096bbb7">
          <g
             transform="translate(148.712,134.765)"
             style="stroke:#000000;stroke-width:0;stroke-opacity:1"
             id="g4889">
            <path
               style="stroke:#000000;stroke-width:0;stroke-opacity:1"
               d="M 3.328125,-3.015625 C 3.390625,-3.265625 3.625,-4.1875 4.3125,-4.1875 c 0.046875,0 0.296875,0 0.5,0.125 C 4.53125,-4 4.34375,-3.765625 4.34375,-3.515625 c 0,0.15625 0.109375,0.34375 0.375,0.34375 0.21875,0 0.53125,-0.171875 0.53125,-0.578125 0,-0.515625 -0.578125,-0.65625 -0.921875,-0.65625 -0.578125,0 -0.921875,0.53125 -1.046875,0.75 -0.25,-0.65625 -0.78125,-0.75 -1.078125,-0.75 -1.03125,0 -1.609375,1.28125 -1.609375,1.53125 0,0.109375 0.109375,0.109375 0.125,0.109375 0.078125,0 0.109375,-0.03125 0.125,-0.109375 0.34375,-1.0625 1,-1.3125 1.34375,-1.3125 0.1875,0 0.53125,0.09375 0.53125,0.671875 0,0.3125 -0.171875,0.96875 -0.53125,2.375 -0.15625,0.609375 -0.515625,1.03125 -0.953125,1.03125 -0.0625,0 -0.28125,0 -0.5,-0.125 0.25,-0.0625 0.46875,-0.265625 0.46875,-0.546875 0,-0.265625 -0.21875,-0.34375 -0.359375,-0.34375 -0.3125,0 -0.546875,0.25 -0.546875,0.578125 0,0.453125 0.484375,0.65625 0.921875,0.65625 0.671875,0 1.03125,-0.703125 1.046875,-0.75 0.125,0.359375 0.484375,0.75 1.078125,0.75 1.03125,0 1.59375,-1.28125 1.59375,-1.53125 0,-0.109375 -0.078125,-0.109375 -0.109375,-0.109375 -0.09375,0 -0.109375,0.046875 -0.140625,0.109375 -0.328125,1.078125 -1,1.3125 -1.3125,1.3125 -0.390625,0 -0.546875,-0.3125 -0.546875,-0.65625 0,-0.21875 0.046875,-0.4375 0.15625,-0.875 z m 0,0"
               id="id-03e1c9db-3444-441e-8813-730b9d914fa0" />
          </g>
        </g>
      </g>
    </g>
    <path
       style="fill:none;fill-rule:evenodd;stroke:#df0000;stroke-width:2.15900018;stroke-linecap:butt;stroke-linejoin:miter;stroke-opacity:1;stroke-miterlimit:4;stroke-dasharray:none"
       d="m 36.746555,952.20176 c -12.953992,-5.03813 -28.7866633,-6.47746 -38.8625249,-5.75791 -10.0758611,0.71955 -14.3937731,3.59815 -20.1513131,8.63598 -5.757539,5.03783 -12.95406,12.23435 -20.428783,18.93379 -7.474722,6.69945 -14.115143,12.01179 -24.506263,14.89051 -10.39112,2.87872 -22.712544,2.87872 -29.909886,6.47757 -7.197345,3.59885 -8.636635,10.7953 -5.757305,18.712 2.879335,7.9166 10.075846,16.5524 29.386426,24.4409 19.310581,7.8885 51.217068,15.1399 83.602233,16.579 32.385166,1.4391 65.489172,-2.8788 101.622661,-7.2135 36.13349,-4.3347 74.6952,-8.6194 96.81682,-16.1606 22.12162,-7.5412 28.25378,-19.8055 28.27877,-29.8438 0.025,-10.03832 -5.78117,-18.74754 -18.73513,-26.66435 -12.95396,-7.91682 -33.10422,-15.11334 -53.01025,-17.30763 -19.90603,-2.1943 -40.54638,0.75433 -56.37933,4.35265 -15.832954,3.59833 -27.347391,7.91625 -38.142192,5.7578 -10.794802,-2.15844 -20.869941,-10.79428 -33.823933,-15.83241 z"
       id="path5919"
       inkscape:path-effect="#path-effect5921"
       inkscape:original-d="m 39.623997,948.60285 c -15.831528,-1.43819 -31.6641984,-2.87753 -47.4980111,-4.318 -4.3169409,2.87986 -8.6348519,5.75847 -12.9539979,8.636 -7.19567,7.19795 -14.392191,14.39447 -21.590001,21.59 -7.788127,6.15803 -14.392192,11.51581 -21.590002,17.272 -13.585434,0.46131 -25.906858,10e-4 -38.862005,0 -1.43822,7.19796 -2.87752,14.39445 -4.318,21.59005 7.197956,8.6373 14.39448,17.2731 21.590004,25.908 31.468471,6.9531 63.331816,14.3944 94.9960026,21.59 33.1064764,-4.317 66.2104844,-8.6349 99.3140134,-12.954 39.20621,-3.9652 77.72514,-8.6349 116.586,-12.9541 5.05002,-10.9306 11.51581,-23.0281 17.272,-34.544 -6.07643,-8.31555 -11.51352,-17.27081 -17.272,-25.90795 -20.14993,-7.19567 -40.30019,-14.39219 -60.452,-21.59 -19.69235,2.58228 -40.30019,5.75847 -60.452,8.636 -11.513757,4.31923 -23.028195,8.63714 -34.544005,12.954 -10.074388,-8.63503 -20.149531,-17.27086 -30.225998,-25.908 z" />
    <path
       style="fill:none;fill-rule:evenodd;stroke:#df0000;stroke-width:1.14247px;stroke-linecap:butt;stroke-linejoin:miter;stroke-opacity:0.60831594"
       d="m -98.552017,996.10085 c 30.971856,5.89945 60.453318,11.51495 92.8386408,16.55265 32.3853222,5.0376 66.9286252,9.3556 104.0639122,9.3862 37.135284,0.031 78.011144,-4.3489 101.759884,-8.667 23.74874,-4.3181 30.94524,-8.6361 38.14159,-12.9539"
       id="path5923"
       inkscape:path-effect="#path-effect5925"
       inkscape:original-d="m -98.552017,996.10085 c 30.894783,6.30405 60.453147,11.51585 90.6780029,17.27205 34.5458411,4.3192 69.0891451,8.6371 103.6320041,12.954 39.67971,-4.7057 80.60382,-8.6349 120.90402,-12.954 7.19795,-4.317 14.39447,-8.6349 21.59,-12.9541" />
    <path
       style="fill:none;fill-rule:evenodd;stroke:#df0000;stroke-width:1.14247px;stroke-linecap:butt;stroke-linejoin:miter;stroke-opacity:0.60831594"
       d="m -42.418013,974.51085 c 12.955366,4.31846 25.909374,8.63646 45.2125261,12.93303 19.3031519,4.29657 45.4667799,8.65715 72.0945709,9.37663 26.627796,0.71948 53.974586,-2.15912 76.360306,-5.77653 22.38573,-3.61741 39.50541,-7.89733 49.5806,-10.77603 10.07519,-2.87869 12.95381,-4.318 15.83202,-5.7571"
       id="path5927"
       inkscape:path-effect="#path-effect5929"
       inkscape:original-d="m -42.418013,974.51085 c 12.955138,4.31914 25.909147,8.63714 38.8620019,12.954 25.7597831,3.63895 51.8171451,8.63714 77.7240091,12.95395 27.349012,-2.87753 54.695802,-5.75614 82.042002,-8.63595 17.42899,-4.34079 34.54514,-8.63486 51.816,-12.954 2.87987,-1.43822 5.75848,-2.87753 8.63601,-4.318" />
    <path
       style="fill:none;fill-rule:evenodd;stroke:#df0000;stroke-width:1.14247px;stroke-linecap:butt;stroke-linejoin:miter;stroke-opacity:0.60831594"
       d="m -81.280016,1034.9628 c 38.863227,2.8788 77.7252222,5.7575 112.989146,6.4771 35.263924,0.7196 66.928624,-0.7197 95.71551,-2.8788 28.78688,-2.159 54.69437,-5.0376 80.60136,-7.9162"
       id="path5931"
       inkscape:path-effect="#path-effect5933"
       inkscape:original-d="m -81.280016,1034.9628 c 38.863145,2.8799 77.7251474,5.7585 116.586009,8.6361 31.667112,-1.4383 63.331812,-2.8776 94.996007,-4.318 25.90966,-2.8776 51.81715,-5.7562 77.724,-8.636" />
    <path
       style="fill:none;fill-rule:evenodd;stroke:#df0000;stroke-width:1.14247px;stroke-linecap:butt;stroke-linejoin:miter;stroke-opacity:0.60831594"
       d="m 30.98799,952.92085 c -4.318224,8.63645 -8.636136,17.27228 -15.832862,27.34763 -7.1967254,10.07535 -17.6863968,22.06352 -30.107276,33.10432 -12.42088,11.0408 -28.904997,23.0293 -44.737866,34.5441"
       id="path5935"
       inkscape:path-effect="#path-effect5937"
       inkscape:original-d="m 30.98799,952.92085 c -4.316853,8.63714 -8.634765,17.27297 -12.95399,25.908 -10.0743906,11.51604 -20.5640643,23.50425 -30.226003,34.54405 -15.18011,11.042 -31.664189,23.0305 -47.498011,34.544"
       sodipodi:nodetypes="cccc" />
    <path
       style="fill:none;fill-rule:evenodd;stroke:#df0000;stroke-width:1.14247px;stroke-linecap:butt;stroke-linejoin:miter;stroke-opacity:0.60831594"
       d="m 52.577994,961.55685 c 0.587812,8.63721 1.17553,17.27305 -0.689784,25.1891 -1.865314,7.91605 -6.183148,15.11245 -14.393428,25.90755 -8.21028,10.7951 -20.312476,25.1882 -32.414787,39.5814"
       id="path5939"
       inkscape:path-effect="#path-effect5941"
       inkscape:original-d="m 52.577994,961.55685 c 0.588872,8.63714 1.17659,17.27298 1.763188,25.908 -4.316944,7.19796 -8.634796,14.39435 -12.954009,21.59005 -12.101439,14.3947 -24.203635,28.7878 -36.307178,43.18"
       sodipodi:nodetypes="cccc" />
    <path
       style="fill:none;fill-rule:evenodd;stroke:#df0000;stroke-width:1.14247px;stroke-linecap:butt;stroke-linejoin:miter;stroke-opacity:0.60831594"
       d="m 113.03,961.55685 c -0.7914,9.36307 -1.70328,20.15148 -3.56851,31.66632 -1.86523,11.51483 -4.7438,24.46843 -10.794901,34.54343 -6.051098,10.0749 -15.274611,17.2714 -24.498591,24.4683"
       id="path5943"
       inkscape:path-effect="#path-effect5945"
       inkscape:original-d="m 113.03,961.55685 c -0.79017,9.36317 -1.70205,20.15158 -2.55482,30.226 -2.87759,12.95545 -5.75615,25.90905 -8.636,38.86205 -9.222704,7.1979 -18.446216,14.3944 -27.671182,21.59"
       sodipodi:nodetypes="cccc" />
    <path
       style="fill:none;fill-rule:evenodd;stroke:#df0000;stroke-width:1.14247px;stroke-linecap:butt;stroke-linejoin:miter;stroke-opacity:0.60831594"
       d="m 169.164,957.23885 c 5.75783,15.83404 11.51516,31.66672 12.9541,43.90085 1.43895,12.234 -1.43965,20.8698 -3.59866,26.6271 -2.159,5.7572 -3.59831,8.6358 -5.03744,11.5141"
       id="path5947"
       inkscape:path-effect="#path-effect5949"
       inkscape:original-d="m 169.164,957.23885 c 5.75847,15.83381 11.51581,31.66648 17.272,47.49805 -2.87758,8.6373 -5.75619,17.2731 -8.636,25.908 -1.43822,2.8798 -2.87753,5.7584 -4.318,8.636" />
    <path
       style="fill:none;fill-rule:evenodd;stroke:#000000;stroke-width:1.72720014;stroke-linecap:butt;stroke-linejoin:miter;stroke-opacity:1;stroke-miterlimit:4;stroke-dasharray:none;marker-end:url(#Arrow1Mend)"
       d="m 216.66201,974.51085 c -11.51334,-7.19584 -23.028,-14.3925 -34.544,-21.59"
       id="path6438"
       inkscape:path-effect="#path-effect6440"
       inkscape:original-d="m 216.66201,974.51085 c -11.51353,-7.19553 -23.02819,-14.39219 -34.544,-21.59" />
    <g
       transform="matrix(1.33333,0,0,1.33333,211.60521,891.28987)"
       ns0:version="1.3.0"
       ns0:texconverter="pdflatex"
       ns0:pdfconverter="inkscape"
       ns0:text="$\\boldsymbol{\\hat{N}}$"
       ns0:preamble="/home/shreyas/Teaching/Courses/2020/MA3D1/preamble.tex"
       ns0:scale="1.0"
       ns0:alignment="middle center"
       ns0:inkscapeversion="1.1.1"
       ns0:jacobian_sqrt="1.33333"
       style="stroke:#000000;stroke-width:0;stroke-opacity:1;fill:#008115;fill-opacity:1"
       id="content-5-7">
      <defs
         id="id-37680c23-51a6-4f34-b0a3-26b3e3ea4a74"
         style="stroke:#000000;stroke-width:0;stroke-opacity:1">
        <g
           id="id-e707b3b4-5c3c-4105-b0fe-42ee44af2c8f"
           style="stroke:#000000;stroke-width:0;stroke-opacity:1">
          <symbol
             overflow="visible"
             id="id-d0850dd7-9ec8-4e39-a5a8-4c6e8eae2a2e"
             style="stroke:#000000;stroke-width:0;stroke-opacity:1">
            <path
               style="stroke:#000000;stroke-width:0;stroke-opacity:1"
               d=""
               id="id-6f9fe063-acde-4795-871d-b0c8bb8e16b9" />
          </symbol>
          <symbol
             overflow="visible"
             id="id-c9d10af6-a8b3-446b-8475-365580c2ea8f"
             style="stroke:#000000;stroke-width:0;stroke-opacity:1">
            <path
               style="stroke:#000000;stroke-width:0;stroke-opacity:1"
               d="m 2.859375,-6.921875 -1.5625,1.265625 0.28125,0.375 1.28125,-0.8125 1.28125,0.8125 0.28125,-0.375 z m 0,0"
               id="id-c131fa57-71e8-42b3-bb38-afdae4ea4db4" />
          </symbol>
          <symbol
             overflow="visible"
             id="id-323ccb17-678f-4542-bfa1-6999f520dd20"
             style="stroke:#000000;stroke-width:0;stroke-opacity:1">
            <path
               style="stroke:#000000;stroke-width:0;stroke-opacity:1"
               d=""
               id="id-1626f46b-2cae-4d82-8d4a-523517ab4a60" />
          </symbol>
          <symbol
             overflow="visible"
             id="id-c7fbf65c-9d65-48aa-bd70-82d7df23fe4e"
             style="stroke:#000000;stroke-width:0;stroke-opacity:1">
            <path
               style="stroke:#000000;stroke-width:0;stroke-opacity:1"
               d="m 9.015625,-6.0625 c 0.0625,-0.1875 0.0625,-0.203125 0.296875,-0.25 0.171875,-0.03125 0.421875,-0.0625 0.578125,-0.0625 0.171875,0 0.34375,0 0.34375,-0.28125 0,-0.09375 -0.0625,-0.1875 -0.203125,-0.1875 -0.359375,0 -0.734375,0.03125 -1.09375,0.03125 -0.25,0 -0.890625,-0.03125 -1.140625,-0.03125 -0.078125,0 -0.265625,0 -0.265625,0.296875 0,0.171875 0.171875,0.171875 0.296875,0.171875 0.09375,0 0.46875,0 0.703125,0.109375 L 7.453125,-1.96875 4.640625,-6.671875 C 4.546875,-6.84375 4.515625,-6.84375 4.28125,-6.84375 H 2.390625 c -0.203125,0 -0.359375,0 -0.359375,0.296875 0,0.171875 0.15625,0.171875 0.328125,0.171875 h 0.25 c 0.4375,0 0.4375,0.03125 0.4375,0.0625 0,0.03125 -0.03125,0.09375 -0.03125,0.125 L 1.65625,-0.78125 c -0.046875,0.1875 -0.046875,0.203125 -0.296875,0.25 -0.25,0.0625 -0.546875,0.0625 -0.578125,0.0625 -0.1875,0 -0.359375,0 -0.359375,0.296875 C 0.421875,-0.15625 0.453125,0 0.625,0 0.984375,0 1.359375,-0.03125 1.734375,-0.03125 1.984375,-0.03125 2.625,0 2.875,0 c 0.0625,0 0.265625,0 0.265625,-0.296875 0,-0.171875 -0.1875,-0.171875 -0.3125,-0.171875 -0.09375,0 -0.453125,0 -0.6875,-0.09375 L 3.5,-6 6.984375,-0.171875 C 7.09375,0 7.125,0 7.28125,0 7.5,0 7.5,-0.046875 7.5625,-0.234375 Z m 0,0"
               id="id-5020fcd4-532c-49f0-9f2a-d9b22d6a0e5d" />
          </symbol>
        </g>
      </defs>
      <g
         id="id-0c580469-ba07-4dbd-9ce3-4e2b61c3d2bf"
         transform="translate(-149.134,-125.435)"
         style="stroke:#000000;stroke-width:0;stroke-opacity:1;fill:#008115;fill-opacity:1">
        <g
           style="fill:#008115;fill-opacity:1;stroke:#000000;stroke-width:0;stroke-opacity:1"
           id="id-ac5fe226-5778-4312-b229-7b792740b938">
          <g
             transform="translate(152.106,132.357)"
             style="stroke:#000000;stroke-width:0;stroke-opacity:1;fill:#008115;fill-opacity:1"
             id="g6945">
            <path
               style="stroke:#000000;stroke-width:0;stroke-opacity:1;fill:#008115;fill-opacity:1"
               d="m 2.859375,-6.921875 -1.5625,1.265625 0.28125,0.375 1.28125,-0.8125 1.28125,0.8125 0.28125,-0.375 z m 0,0"
               id="id-5b3dca9a-ef07-4aa6-bcad-4363323ee994" />
          </g>
        </g>
        <g
           style="fill:#008115;fill-opacity:1;stroke:#000000;stroke-width:0;stroke-opacity:1"
           id="id-2ba540dd-058a-4d5c-af31-4cf43959a2da">
          <g
             transform="translate(148.712,134.765)"
             style="stroke:#000000;stroke-width:0;stroke-opacity:1;fill:#008115;fill-opacity:1"
             id="g6949">
            <path
               style="stroke:#000000;stroke-width:0;stroke-opacity:1;fill:#008115;fill-opacity:1"
               d="m 9.015625,-6.0625 c 0.0625,-0.1875 0.0625,-0.203125 0.296875,-0.25 0.171875,-0.03125 0.421875,-0.0625 0.578125,-0.0625 0.171875,0 0.34375,0 0.34375,-0.28125 0,-0.09375 -0.0625,-0.1875 -0.203125,-0.1875 -0.359375,0 -0.734375,0.03125 -1.09375,0.03125 -0.25,0 -0.890625,-0.03125 -1.140625,-0.03125 -0.078125,0 -0.265625,0 -0.265625,0.296875 0,0.171875 0.171875,0.171875 0.296875,0.171875 0.09375,0 0.46875,0 0.703125,0.109375 L 7.453125,-1.96875 4.640625,-6.671875 C 4.546875,-6.84375 4.515625,-6.84375 4.28125,-6.84375 H 2.390625 c -0.203125,0 -0.359375,0 -0.359375,0.296875 0,0.171875 0.15625,0.171875 0.328125,0.171875 h 0.25 c 0.4375,0 0.4375,0.03125 0.4375,0.0625 0,0.03125 -0.03125,0.09375 -0.03125,0.125 L 1.65625,-0.78125 c -0.046875,0.1875 -0.046875,0.203125 -0.296875,0.25 -0.25,0.0625 -0.546875,0.0625 -0.578125,0.0625 -0.1875,0 -0.359375,0 -0.359375,0.296875 C 0.421875,-0.15625 0.453125,0 0.625,0 0.984375,0 1.359375,-0.03125 1.734375,-0.03125 1.984375,-0.03125 2.625,0 2.875,0 c 0.0625,0 0.265625,0 0.265625,-0.296875 0,-0.171875 -0.1875,-0.171875 -0.3125,-0.171875 -0.09375,0 -0.453125,0 -0.6875,-0.09375 L 3.5,-6 6.984375,-0.171875 C 7.09375,0 7.125,0 7.28125,0 7.5,0 7.5,-0.046875 7.5625,-0.234375 Z m 0,0"
               id="id-4740e273-d695-4d0b-bdb9-a0e1856c8473" />
          </g>
        </g>
      </g>
    </g>
    <g
       transform="matrix(1.33333,0,0,1.33333,262.45721,968.00519)"
       ns0:version="1.3.0"
       ns0:texconverter="pdflatex"
       ns0:pdfconverter="inkscape"
       ns0:text="$\\boldsymbol{\\hat{n}}$"
       ns0:preamble="/home/shreyas/Teaching/Courses/2020/MA3D1/preamble.tex"
       ns0:scale="1.0"
       ns0:alignment="middle center"
       ns0:inkscapeversion="1.1.1"
       ns0:jacobian_sqrt="1.33333"
       style="fill:#3455ff;fill-opacity:1;stroke:#008115;stroke-width:0;stroke-opacity:1"
       id="content-5-7-4">
      <defs
         id="id-eeeb4997-63d8-478c-a1be-8c60c347f7e0"
         style="fill:#008115;fill-opacity:1;stroke:#008115;stroke-width:0;stroke-opacity:1">
        <g
           id="id-df8523d9-e38f-4b19-ae00-911e89ad918c"
           style="fill:#008115;fill-opacity:1;stroke:#008115;stroke-width:0;stroke-opacity:1">
          <symbol
             overflow="visible"
             id="id-99a31b36-870d-49a2-b77f-d85cd40addd8"
             style="fill:#008115;fill-opacity:1;stroke:#008115;stroke-width:0;stroke-opacity:1">
            <path
               style="fill:#008115;fill-opacity:1;stroke:#008115;stroke-width:0;stroke-opacity:1"
               d=""
               id="id-0a991556-d94a-492a-9bcd-ebde30fce600" />
          </symbol>
          <symbol
             overflow="visible"
             id="id-f07820f0-9b31-4e6d-b5a5-a04d8ffadab2"
             style="fill:#008115;fill-opacity:1;stroke:#008115;stroke-width:0;stroke-opacity:1">
            <path
               style="fill:#008115;fill-opacity:1;stroke:#008115;stroke-width:0;stroke-opacity:1"
               d="m 2.859375,-6.921875 -1.5625,1.265625 0.28125,0.375 1.28125,-0.8125 1.28125,0.8125 0.28125,-0.375 z m 0,0"
               id="id-a316c2b4-e6e2-468b-8a02-65bca878220a" />
          </symbol>
          <symbol
             overflow="visible"
             id="id-c78b0de9-4821-4fbc-a206-07fa04945fe6"
             style="fill:#008115;fill-opacity:1;stroke:#008115;stroke-width:0;stroke-opacity:1">
            <path
               style="fill:#008115;fill-opacity:1;stroke:#008115;stroke-width:0;stroke-opacity:1"
               d=""
               id="id-4bbeadad-ca78-449e-9e10-d1734d81dfec" />
          </symbol>
          <symbol
             overflow="visible"
             id="id-fa4b153a-7150-4633-a863-e7c91fb29392"
             style="fill:#008115;fill-opacity:1;stroke:#008115;stroke-width:0;stroke-opacity:1">
            <path
               style="fill:#008115;fill-opacity:1;stroke:#008115;stroke-width:0;stroke-opacity:1"
               d="M 2.796875,-3.75 C 2.65625,-4.25 2.109375,-4.5 1.5625,-4.5 1.203125,-4.5 0.921875,-4.296875 0.703125,-3.9375 0.453125,-3.53125 0.3125,-3 0.3125,-2.953125 c 0,0.140625 0.15625,0.140625 0.25,0.140625 0.109375,0 0.140625,0 0.1875,-0.046875 C 0.78125,-2.875 0.78125,-2.90625 0.84375,-3.15625 1.03125,-3.921875 1.25,-4.140625 1.515625,-4.140625 c 0.15625,0 0.234375,0.09375 0.234375,0.359375 0,0.171875 -0.046875,0.328125 -0.140625,0.734375 C 1.53125,-2.765625 1.4375,-2.375 1.390625,-2.15625 L 1.03125,-0.75 C 1,-0.625 0.953125,-0.421875 0.953125,-0.359375 c 0,0.203125 0.15625,0.4375 0.46875,0.4375 0.515625,0 0.625,-0.453125 0.703125,-0.75 0.09375,-0.375 0.171875,-0.6875 0.28125,-1.125 0.03125,-0.125 0.28125,-1.15625 0.3125,-1.1875 0,-0.0625 0.28125,-0.5 0.609375,-0.78125 0.28125,-0.21875 0.609375,-0.375 1.03125,-0.375 0.25,0 0.5,0.09375 0.5,0.578125 0,0.578125 -0.4375,1.734375 -0.625,2.234375 -0.125,0.265625 -0.140625,0.34375 -0.140625,0.515625 0,0.578125 0.578125,0.890625 1.125,0.890625 1.046875,0 1.546875,-1.359375 1.546875,-1.546875 0,-0.140625 -0.140625,-0.140625 -0.234375,-0.140625 -0.125,0 -0.1875,0 -0.234375,0.125 C 5.96875,-0.375 5.4375,-0.28125 5.28125,-0.28125 c -0.078125,0 -0.171875,0 -0.171875,-0.203125 0,-0.234375 0.09375,-0.484375 0.1875,-0.734375 0.171875,-0.40625 0.625,-1.578125 0.625,-2.125 C 5.921875,-4.265625 5.15625,-4.5 4.4375,-4.5 4.234375,-4.5 3.5,-4.5 2.796875,-3.75 Z m 0,0"
               id="id-08952e90-a8af-4146-b524-6835d3a667ca" />
          </symbol>
        </g>
      </defs>
      <g
         id="id-a952aa41-f13c-4fdd-85f1-a1dc1ad94ac0"
         transform="translate(-149.025,-127.843)"
         style="fill:#3455ff;fill-opacity:1;stroke:#008115;stroke-width:0;stroke-opacity:1">
        <g
           style="fill:#3455ff;fill-opacity:1;stroke:#008115;stroke-width:0;stroke-opacity:1"
           id="id-76eeaef3-ddb5-454e-9a04-8d905b28e44b">
          <g
             transform="translate(149.4,134.765)"
             style="fill:#3455ff;fill-opacity:1;stroke:#008115;stroke-width:0;stroke-opacity:1"
             id="g7483">
            <path
               style="fill:#3455ff;fill-opacity:1;stroke:#008115;stroke-width:0;stroke-opacity:1"
               d="m 2.859375,-6.921875 -1.5625,1.265625 0.28125,0.375 1.28125,-0.8125 1.28125,0.8125 0.28125,-0.375 z m 0,0"
               id="id-5aab34bb-1af5-45da-8806-40a2df402764" />
          </g>
        </g>
        <g
           style="fill:#3455ff;fill-opacity:1;stroke:#008115;stroke-width:0;stroke-opacity:1"
           id="id-15f60796-fc39-4948-b4ca-ea97fbc93707">
          <g
             transform="translate(148.712,134.765)"
             style="fill:#3455ff;fill-opacity:1;stroke:#008115;stroke-width:0;stroke-opacity:1"
             id="g7487">
            <path
               style="fill:#3455ff;fill-opacity:1;stroke:#008115;stroke-width:0;stroke-opacity:1"
               d="M 2.796875,-3.75 C 2.65625,-4.25 2.109375,-4.5 1.5625,-4.5 1.203125,-4.5 0.921875,-4.296875 0.703125,-3.9375 0.453125,-3.53125 0.3125,-3 0.3125,-2.953125 c 0,0.140625 0.15625,0.140625 0.25,0.140625 0.109375,0 0.140625,0 0.1875,-0.046875 C 0.78125,-2.875 0.78125,-2.90625 0.84375,-3.15625 1.03125,-3.921875 1.25,-4.140625 1.515625,-4.140625 c 0.15625,0 0.234375,0.09375 0.234375,0.359375 0,0.171875 -0.046875,0.328125 -0.140625,0.734375 C 1.53125,-2.765625 1.4375,-2.375 1.390625,-2.15625 L 1.03125,-0.75 C 1,-0.625 0.953125,-0.421875 0.953125,-0.359375 c 0,0.203125 0.15625,0.4375 0.46875,0.4375 0.515625,0 0.625,-0.453125 0.703125,-0.75 0.09375,-0.375 0.171875,-0.6875 0.28125,-1.125 0.03125,-0.125 0.28125,-1.15625 0.3125,-1.1875 0,-0.0625 0.28125,-0.5 0.609375,-0.78125 0.28125,-0.21875 0.609375,-0.375 1.03125,-0.375 0.25,0 0.5,0.09375 0.5,0.578125 0,0.578125 -0.4375,1.734375 -0.625,2.234375 -0.125,0.265625 -0.140625,0.34375 -0.140625,0.515625 0,0.578125 0.578125,0.890625 1.125,0.890625 1.046875,0 1.546875,-1.359375 1.546875,-1.546875 0,-0.140625 -0.140625,-0.140625 -0.234375,-0.140625 -0.125,0 -0.1875,0 -0.234375,0.125 C 5.96875,-0.375 5.4375,-0.28125 5.28125,-0.28125 c -0.078125,0 -0.171875,0 -0.171875,-0.203125 0,-0.234375 0.09375,-0.484375 0.1875,-0.734375 0.171875,-0.40625 0.625,-1.578125 0.625,-2.125 C 5.921875,-4.265625 5.15625,-4.5 4.4375,-4.5 4.234375,-4.5 3.5,-4.5 2.796875,-3.75 Z m 0,0"
               id="id-8a0c4be5-7f97-4821-8cb2-bbfa00322c22" />
          </g>
        </g>
      </g>
    </g>
    <g
       transform="matrix(1.33333 0 0 1.33333 174.313 937.603)"
       ns0:version="1.3.0"
       ns0:texconverter="pdflatex"
       ns0:pdfconverter="inkscape"
       ns0:text="$\\boldsymbol{\\hat{t}}$"
       ns0:preamble="/home/shreyas/Teaching/Courses/2020/MA3D1/preamble.tex"
       ns0:scale="1.0"
       ns0:alignment="middle center"
       ns0:inkscapeversion="1.1.1"
       ns0:jacobian_sqrt="1.33333"
       style="fill:#000000;fill-opacity:1;stroke:#3455ff;stroke-opacity:1;stroke-width:0"
       id="content-5-7-4-9">
      <defs
         id="id-0643ffdb-226b-4b6c-aaa2-9d602d97d484"
         style="fill:#3455ff;fill-opacity:1;stroke:#3455ff;stroke-opacity:1;stroke-width:0">
        <g
           id="id-72f0d70c-b832-4e75-8e74-b1b1fa0c3ba7"
           style="fill:#3455ff;fill-opacity:1;stroke:#3455ff;stroke-opacity:1;stroke-width:0">
          <symbol
             overflow="visible"
             id="id-084e0f20-4c18-4c22-a84b-6f4ea46f41c9"
             style="fill:#3455ff;fill-opacity:1;stroke:#3455ff;stroke-opacity:1;stroke-width:0">
            <path
               style="stroke:#3455ff;fill:#3455ff;fill-opacity:1;stroke-opacity:1;stroke-width:0"
               d=""
               id="id-234a326b-886a-4f87-a855-d2831de74691" />
          </symbol>
          <symbol
             overflow="visible"
             id="id-5833dec8-4b04-4d3e-a825-b4d9898a1684"
             style="fill:#3455ff;fill-opacity:1;stroke:#3455ff;stroke-opacity:1;stroke-width:0">
            <path
               style="stroke:#3455ff;fill:#3455ff;fill-opacity:1;stroke-opacity:1;stroke-width:0"
               d="m 2.859375,-6.921875 -1.5625,1.265625 0.28125,0.375 1.28125,-0.8125 1.28125,0.8125 0.28125,-0.375 z m 0,0"
               id="id-61f82eed-b771-44be-81d2-1df276bf3d9d" />
          </symbol>
          <symbol
             overflow="visible"
             id="id-1dfa0900-0328-445e-848d-f52c4a414254"
             style="fill:#3455ff;fill-opacity:1;stroke:#3455ff;stroke-opacity:1;stroke-width:0">
            <path
               style="stroke:#3455ff;fill:#3455ff;fill-opacity:1;stroke-opacity:1;stroke-width:0"
               d=""
               id="id-ee2fbff5-3b3f-4d5d-8f9a-ed7bc05bcb41" />
          </symbol>
          <symbol
             overflow="visible"
             id="id-e0798da6-9b59-469a-a1ea-6165569fb888"
             style="fill:#3455ff;fill-opacity:1;stroke:#3455ff;stroke-opacity:1;stroke-width:0">
            <path
               style="stroke:#3455ff;fill:#3455ff;fill-opacity:1;stroke-opacity:1;stroke-width:0"
               d="M 2.515625,-3.953125 H 3.40625 c 0.1875,0 0.21875,0 0.265625,-0.046875 0.0625,-0.046875 0.09375,-0.1875 0.09375,-0.25 0,-0.171875 -0.171875,-0.171875 -0.34375,-0.171875 H 2.625 L 2.953125,-5.71875 c 0.03125,-0.15625 0.03125,-0.21875 0.03125,-0.25 0,-0.328125 -0.25,-0.4375 -0.46875,-0.4375 -0.140625,0 -0.40625,0.0625 -0.578125,0.34375 C 1.90625,-5.984375 1.78125,-5.515625 1.71875,-5.25 L 1.515625,-4.421875 H 0.625 c -0.203125,0 -0.375,0 -0.375,0.28125 0,0.1875 0.15625,0.1875 0.34375,0.1875 H 1.390625 L 0.828125,-1.6875 C 0.75,-1.421875 0.65625,-1 0.65625,-0.890625 c 0,0.640625 0.640625,0.96875 1.25,0.96875 1.1875,0 1.875,-1.390625 1.875,-1.546875 0,-0.140625 -0.15625,-0.140625 -0.25,-0.140625 -0.15625,0 -0.171875,0 -0.234375,0.15625 -0.390625,0.859375 -0.9375,1.171875 -1.328125,1.171875 -0.09375,0 -0.25,0 -0.25,-0.359375 0,-0.203125 0.03125,-0.3125 0.0625,-0.4375 z m 0,0"
               id="id-869ca121-cdd8-405a-a528-289a68db071c" />
          </symbol>
        </g>
      </defs>
      <g
         id="id-1a225598-b44f-43fa-8ae1-01b6440f7e02"
         transform="translate(-148.962, -125.945)"
         style="fill:#000000;fill-opacity:1;stroke:#3455ff;stroke-opacity:1;stroke-width:0">
        <g
           style="fill:#000000;fill-opacity:1;stroke:#3455ff;stroke-opacity:1;stroke-width:0"
           id="id-9ac65298-4b56-4055-a76a-48f8e6b3785a">
          <g
             transform="translate(148.871, 132.867)"
             style="fill:#000000;fill-opacity:1;stroke:#3455ff;stroke-opacity:1;stroke-width:0"
             id="g8057">
            <path
               style="stroke:#3455ff;fill:#000000;fill-opacity:1;stroke-opacity:1;stroke-width:0"
               d="m 2.859375,-6.921875 -1.5625,1.265625 0.28125,0.375 1.28125,-0.8125 1.28125,0.8125 0.28125,-0.375 z m 0,0"
               id="id-700c0425-4d38-461b-b109-ae6adaeda72c" />
          </g>
        </g>
        <g
           style="fill:#000000;fill-opacity:1;stroke:#3455ff;stroke-opacity:1;stroke-width:0"
           id="id-39ec8d3a-b0ca-44ce-9ab5-cddeeb17c3b2">
          <g
             transform="translate(148.712, 134.765)"
             style="fill:#000000;fill-opacity:1;stroke:#3455ff;stroke-opacity:1;stroke-width:0"
             id="g8061">
            <path
               style="stroke:#3455ff;fill:#000000;fill-opacity:1;stroke-opacity:1;stroke-width:0"
               d="M 2.515625,-3.953125 H 3.40625 c 0.1875,0 0.21875,0 0.265625,-0.046875 0.0625,-0.046875 0.09375,-0.1875 0.09375,-0.25 0,-0.171875 -0.171875,-0.171875 -0.34375,-0.171875 H 2.625 L 2.953125,-5.71875 c 0.03125,-0.15625 0.03125,-0.21875 0.03125,-0.25 0,-0.328125 -0.25,-0.4375 -0.46875,-0.4375 -0.140625,0 -0.40625,0.0625 -0.578125,0.34375 C 1.90625,-5.984375 1.78125,-5.515625 1.71875,-5.25 L 1.515625,-4.421875 H 0.625 c -0.203125,0 -0.375,0 -0.375,0.28125 0,0.1875 0.15625,0.1875 0.34375,0.1875 H 1.390625 L 0.828125,-1.6875 C 0.75,-1.421875 0.65625,-1 0.65625,-0.890625 c 0,0.640625 0.640625,0.96875 1.25,0.96875 1.1875,0 1.875,-1.390625 1.875,-1.546875 0,-0.140625 -0.15625,-0.140625 -0.25,-0.140625 -0.15625,0 -0.171875,0 -0.234375,0.15625 -0.390625,0.859375 -0.9375,1.171875 -1.328125,1.171875 -0.09375,0 -0.25,0 -0.25,-0.359375 0,-0.203125 0.03125,-0.3125 0.0625,-0.4375 z m 0,0"
               id="id-b1522208-8bac-4d67-b2d4-a1ae68577273" />
          </g>
        </g>
      </g>
    </g>
    <path
       style="fill:none;fill-rule:evenodd;stroke:#ff0000;stroke-width:1.14427;stroke-linecap:butt;stroke-linejoin:miter;stroke-miterlimit:4;stroke-dasharray:none;stroke-opacity:1;marker-end:url(#Arrow1Mend)"
       d="m 13.522221,1055.2559 c 0,0 28.443862,-0.094 28.443862,-0.094"
       id="path8632"
       inkscape:path-effect="#path-effect8634"
       inkscape:original-d="m 13.522221,1055.2559 28.443862,-0.094"
       sodipodi:nodetypes="cc" />
    <g
       transform="matrix(1.33333,0,0,1.33333,33.853174,1060.8302)"
       ns0:version="1.3.0"
       ns0:texconverter="pdflatex"
       ns0:pdfconverter="inkscape"
       ns0:text="$C$"
       ns0:preamble="/home/shreyas/Teaching/Courses/2020/MA3D1/preamble.tex"
       ns0:scale="1.0"
       ns0:alignment="middle center"
       ns0:inkscapeversion="1.1.1"
       ns0:jacobian_sqrt="1.33333"
       style="fill:#ff1300;fill-opacity:1;stroke:#008115;stroke-width:0;stroke-opacity:1"
       id="content-5-7-1">
      <defs
         id="id-f3275076-b193-42f3-a0e2-8e5dcfa28b57"
         style="fill:#008115;fill-opacity:1;stroke:#008115;stroke-width:0;stroke-opacity:1">
        <g
           id="id-c9c892d3-8ea1-4687-8826-06bf25c65ae1"
           style="fill:#008115;fill-opacity:1;stroke:#008115;stroke-width:0;stroke-opacity:1">
          <symbol
             overflow="visible"
             id="id-a3b36775-445c-4898-9e34-c54168cb7f33"
             style="fill:#008115;fill-opacity:1;stroke:#008115;stroke-width:0;stroke-opacity:1">
            <path
               style="fill:#008115;fill-opacity:1;stroke:#008115;stroke-width:0;stroke-opacity:1"
               d=""
               id="id-34ed2fda-4944-4399-a7a2-ca6cfdbfbadd" />
          </symbol>
          <symbol
             overflow="visible"
             id="id-0e2587c9-f355-43ac-89c9-20d6aa7c7f3c"
             style="fill:#008115;fill-opacity:1;stroke:#008115;stroke-width:0;stroke-opacity:1">
            <path
               style="fill:#008115;fill-opacity:1;stroke:#008115;stroke-width:0;stroke-opacity:1"
               d="m 7.578125,-6.921875 c 0,-0.03125 -0.015625,-0.109375 -0.109375,-0.109375 -0.03125,0 -0.046875,0.015625 -0.15625,0.125 L 6.625,-6.140625 C 6.53125,-6.28125 6.078125,-7.03125 4.96875,-7.03125 2.734375,-7.03125 0.5,-4.828125 0.5,-2.515625 0.5,-0.875 1.671875,0.21875 3.203125,0.21875 c 0.859375,0 1.625,-0.390625 2.15625,-0.859375 0.921875,-0.8125 1.09375,-1.71875 1.09375,-1.75 C 6.453125,-2.5 6.34375,-2.5 6.328125,-2.5 c -0.0625,0 -0.109375,0.03125 -0.125,0.109375 -0.09375,0.28125 -0.328125,1 -1.015625,1.578125 -0.6875,0.546875 -1.3125,0.71875 -1.828125,0.71875 -0.890625,0 -1.953125,-0.515625 -1.953125,-2.0625 0,-0.578125 0.203125,-2.1875 1.203125,-3.359375 0.609375,-0.703125 1.546875,-1.203125 2.4375,-1.203125 1.015625,0 1.609375,0.765625 1.609375,1.921875 0,0.40625 -0.03125,0.40625 -0.03125,0.515625 0,0.09375 0.109375,0.09375 0.140625,0.09375 0.125,0 0.125,-0.015625 0.1875,-0.203125 z m 0,0"
               id="id-8d48aaee-d8b2-4d9f-9b73-14d7b95d9034" />
          </symbol>
        </g>
      </defs>
      <g
         id="id-123ac845-589e-4ec9-adba-34b483bfdc4e"
         transform="translate(-149.212,-127.734)"
         style="fill:#ff1300;fill-opacity:1;stroke:#008115;stroke-width:0;stroke-opacity:1">
        <g
           style="fill:#ff1300;fill-opacity:1;stroke:#008115;stroke-width:0;stroke-opacity:1"
           id="id-0fc2550c-7e04-4afb-b8b0-11d59a51395f">
          <g
             transform="translate(148.712,134.765)"
             style="fill:#ff1300;fill-opacity:1;stroke:#008115;stroke-width:0;stroke-opacity:1"
             id="g9624">
            <path
               style="fill:#ff1300;fill-opacity:1;stroke:#008115;stroke-width:0;stroke-opacity:1"
               d="m 7.578125,-6.921875 c 0,-0.03125 -0.015625,-0.109375 -0.109375,-0.109375 -0.03125,0 -0.046875,0.015625 -0.15625,0.125 L 6.625,-6.140625 C 6.53125,-6.28125 6.078125,-7.03125 4.96875,-7.03125 2.734375,-7.03125 0.5,-4.828125 0.5,-2.515625 0.5,-0.875 1.671875,0.21875 3.203125,0.21875 c 0.859375,0 1.625,-0.390625 2.15625,-0.859375 0.921875,-0.8125 1.09375,-1.71875 1.09375,-1.75 C 6.453125,-2.5 6.34375,-2.5 6.328125,-2.5 c -0.0625,0 -0.109375,0.03125 -0.125,0.109375 -0.09375,0.28125 -0.328125,1 -1.015625,1.578125 -0.6875,0.546875 -1.3125,0.71875 -1.828125,0.71875 -0.890625,0 -1.953125,-0.515625 -1.953125,-2.0625 0,-0.578125 0.203125,-2.1875 1.203125,-3.359375 0.609375,-0.703125 1.546875,-1.203125 2.4375,-1.203125 1.015625,0 1.609375,0.765625 1.609375,1.921875 0,0.40625 -0.03125,0.40625 -0.03125,0.515625 0,0.09375 0.109375,0.09375 0.140625,0.09375 0.125,0 0.125,-0.015625 0.1875,-0.203125 z m 0,0"
               id="id-dc1e8c81-4eb4-4ad4-849b-a81986c75e85" />
          </g>
        </g>
      </g>
    </g>
  </g>
</svg>
